^C:\Users\bluet87\Downloads\of_v0.11.0_vs2017_release\apps\myApps\gmc-finalv0\gmc-finalv0.vcxproj
C:\Users\bluet87\Downloads\of_v0.11.0_vs2017_release\apps\myApps\gmc-finalv0\bin\gmc-finalv0_debug.lib
C:\Users\bluet87\Downloads\of_v0.11.0_vs2017_release\apps\myApps\gmc-finalv0\bin\gmc-finalv0_debug.exp
^C:\Users\bluet87\Downloads\of_v0.11.0_vs2017_release\apps\myApps\gmc-finalv0\gmc-finalv0.vcxproj
C:\Users\bluet87\Downloads\of_v0.11.0_vs2017_release\apps\myApps\gmc-finalv0\bin\gmc-finalv0_debug.lib
C:\Users\bluet87\Downloads\of_v0.11.0_vs2017_release\apps\myApps\gmc-finalv0\bin\gmc-finalv0_debug.exp
^C:\Users\bluet87\Downloads\of_v0.11.0_vs2017_release\apps\myApps\gmc-finalv0\gmc-finalv0.vcxproj
C:\Users\bluet87\Downloads\of_v0.11.0_vs2017_release\apps\myApps\gmc-finalv0\bin\gmc-finalv0_debug.lib
C:\Users\bluet87\Downloads\of_v0.11.0_vs2017_release\apps\myApps\gmc-finalv0\bin\gmc-finalv0_debug.exp
^C:\Users\bluet87\Downloads\of_v0.11.0_vs2017_release\apps\myApps\gmc-finalv0\gmc-finalv0.vcxproj
C:\Users\bluet87\Downloads\of_v0.11.0_vs2017_release\apps\myApps\gmc-finalv0\bin\gmc-finalv0_debug.lib
C:\Users\bluet87\Downloads\of_v0.11.0_vs2017_release\apps\myApps\gmc-finalv0\bin\gmc-finalv0_debug.exp
^C:\Users\bluet87\Downloads\of_v0.11.0_vs2017_release\apps\myApps\gmc-finalv0\gmc-finalv0.vcxproj
C:\Users\bluet87\Downloads\of_v0.11.0_vs2017_release\apps\myApps\gmc-finalv0\bin\gmc-finalv0_debug.lib
C:\Users\bluet87\Downloads\of_v0.11.0_vs2017_release\apps\myApps\gmc-finalv0\bin\gmc-finalv0_debug.exp
^C:\Users\bluet87\Downloads\of_v0.11.0_vs2017_release\apps\myApps\gmc-finalv0\gmc-finalv0.vcxproj
C:\Users\bluet87\Downloads\of_v0.11.0_vs2017_release\apps\myApps\gmc-finalv0\bin\gmc-finalv0_debug.lib
C:\Users\bluet87\Downloads\of_v0.11.0_vs2017_release\apps\myApps\gmc-finalv0\bin\gmc-finalv0_debug.exp
^C:\Users\bluet87\Downloads\of_v0.11.0_vs2017_release\apps\myApps\gmc-finalv0\gmc-finalv0.vcxproj
C:\Users\bluet87\Downloads\of_v0.11.0_vs2017_release\apps\myApps\gmc-finalv0\bin\gmc-finalv0_debug.lib
C:\Users\bluet87\Downloads\of_v0.11.0_vs2017_release\apps\myApps\gmc-finalv0\bin\gmc-finalv0_debug.exp
^C:\Users\bluet87\Downloads\of_v0.11.0_vs2017_release\apps\myApps\gmc-finalv0\gmc-finalv0.vcxproj
C:\Users\bluet87\Downloads\of_v0.11.0_vs2017_release\apps\myApps\gmc-finalv0\bin\gmc-finalv0_debug.lib
C:\Users\bluet87\Downloads\of_v0.11.0_vs2017_release\apps\myApps\gmc-finalv0\bin\gmc-finalv0_debug.exp
^C:\Users\bluet87\Downloads\of_v0.11.0_vs2017_release\apps\myApps\gmc-finalv0\gmc-finalv0.vcxproj
C:\Users\bluet87\Downloads\of_v0.11.0_vs2017_release\apps\myApps\gmc-finalv0\bin\gmc-finalv0_debug.lib
C:\Users\bluet87\Downloads\of_v0.11.0_vs2017_release\apps\myApps\gmc-finalv0\bin\gmc-finalv0_debug.exp
^C:\Users\bluet87\Downloads\of_v0.11.0_vs2017_release\apps\myApps\gmc-finalv0\gmc-finalv0.vcxproj
C:\Users\bluet87\Downloads\of_v0.11.0_vs2017_release\apps\myApps\gmc-finalv0\bin\gmc-finalv0_debug.lib
C:\Users\bluet87\Downloads\of_v0.11.0_vs2017_release\apps\myApps\gmc-finalv0\bin\gmc-finalv0_debug.exp
^C:\Users\bluet87\Downloads\of_v0.11.0_vs2017_release\apps\myApps\gmc-finalv0\gmc-finalv0.vcxproj
C:\Users\bluet87\Downloads\of_v0.11.0_vs2017_release\apps\myApps\gmc-finalv0\bin\gmc-finalv0_debug.lib
C:\Users\bluet87\Downloads\of_v0.11.0_vs2017_release\apps\myApps\gmc-finalv0\bin\gmc-finalv0_debug.exp
^C:\Users\bluet87\Downloads\of_v0.11.0_vs2017_release\apps\myApps\gmc-finalv0\gmc-finalv0.vcxproj
C:\Users\bluet87\Downloads\of_v0.11.0_vs2017_release\apps\myApps\gmc-finalv0\bin\gmc-finalv0_debug.lib
C:\Users\bluet87\Downloads\of_v0.11.0_vs2017_release\apps\myApps\gmc-finalv0\bin\gmc-finalv0_debug.exp
^C:\Users\bluet87\Downloads\of_v0.11.0_vs2017_release\apps\myApps\gmc-finalv0\gmc-finalv0.vcxproj
C:\Users\bluet87\Downloads\of_v0.11.0_vs2017_release\apps\myApps\gmc-finalv0\bin\gmc-finalv0_debug.lib
C:\Users\bluet87\Downloads\of_v0.11.0_vs2017_release\apps\myApps\gmc-finalv0\bin\gmc-finalv0_debug.exp
^C:\Users\bluet87\Downloads\of_v0.11.0_vs2017_release\apps\myApps\gmc-finalv0\gmc-finalv0.vcxproj
C:\Users\bluet87\Downloads\of_v0.11.0_vs2017_release\apps\myApps\gmc-finalv0\bin\gmc-finalv0_debug.lib
C:\Users\bluet87\Downloads\of_v0.11.0_vs2017_release\apps\myApps\gmc-finalv0\bin\gmc-finalv0_debug.exp
^C:\Users\bluet87\Downloads\of_v0.11.0_vs2017_release\apps\myApps\gmc-finalv0\gmc-finalv0.vcxproj
C:\Users\bluet87\Downloads\of_v0.11.0_vs2017_release\apps\myApps\gmc-finalv0\bin\gmc-finalv0_debug.lib
C:\Users\bluet87\Downloads\of_v0.11.0_vs2017_release\apps\myApps\gmc-finalv0\bin\gmc-finalv0_debug.exp
^C:\Users\bluet87\Downloads\of_v0.11.0_vs2017_release\apps\myApps\gmc-finalv0\gmc-finalv0.vcxproj
C:\Users\bluet87\Downloads\of_v0.11.0_vs2017_release\apps\myApps\gmc-finalv0\bin\gmc-finalv0_debug.lib
C:\Users\bluet87\Downloads\of_v0.11.0_vs2017_release\apps\myApps\gmc-finalv0\bin\gmc-finalv0_debug.exp
^C:\Users\bluet87\Downloads\of_v0.11.0_vs2017_release\apps\myApps\gmc-finalv0\gmc-finalv0.vcxproj
C:\Users\bluet87\Downloads\of_v0.11.0_vs2017_release\apps\myApps\gmc-finalv0\bin\gmc-finalv0_debug.lib
C:\Users\bluet87\Downloads\of_v0.11.0_vs2017_release\apps\myApps\gmc-finalv0\bin\gmc-finalv0_debug.exp
^C:\Users\bluet87\Downloads\of_v0.11.0_vs2017_release\apps\myApps\gmc-finalv0\gmc-finalv0.vcxproj
C:\Users\bluet87\Downloads\of_v0.11.0_vs2017_release\apps\myApps\gmc-finalv0\bin\gmc-finalv0_debug.lib
C:\Users\bluet87\Downloads\of_v0.11.0_vs2017_release\apps\myApps\gmc-finalv0\bin\gmc-finalv0_debug.exp
^C:\Users\bluet87\Downloads\of_v0.11.0_vs2017_release\apps\myApps\gmc-finalv0\gmc-finalv0.vcxproj
C:\Users\bluet87\Downloads\of_v0.11.0_vs2017_release\apps\myApps\gmc-finalv0\bin\gmc-finalv0_debug.lib
C:\Users\bluet87\Downloads\of_v0.11.0_vs2017_release\apps\myApps\gmc-finalv0\bin\gmc-finalv0_debug.exp
^C:\Users\bluet87\Downloads\of_v0.11.0_vs2017_release\apps\myApps\gmc-finalv0\gmc-finalv0.vcxproj
C:\Users\bluet87\Downloads\of_v0.11.0_vs2017_release\apps\myApps\gmc-finalv0\bin\gmc-finalv0_debug.lib
C:\Users\bluet87\Downloads\of_v0.11.0_vs2017_release\apps\myApps\gmc-finalv0\bin\gmc-finalv0_debug.exp
^C:\Users\bluet87\Downloads\of_v0.11.0_vs2017_release\apps\myApps\gmc-finalv0\gmc-finalv0.vcxproj
C:\Users\bluet87\Downloads\of_v0.11.0_vs2017_release\apps\myApps\gmc-finalv0\bin\gmc-finalv0_debug.lib
C:\Users\bluet87\Downloads\of_v0.11.0_vs2017_release\apps\myApps\gmc-finalv0\bin\gmc-finalv0_debug.exp
^C:\Users\bluet87\Downloads\of_v0.11.0_vs2017_release\apps\myApps\gmc-finalv0\gmc-finalv0.vcxproj
C:\Users\bluet87\Downloads\of_v0.11.0_vs2017_release\apps\myApps\gmc-finalv0\bin\gmc-finalv0_debug.lib
C:\Users\bluet87\Downloads\of_v0.11.0_vs2017_release\apps\myApps\gmc-finalv0\bin\gmc-finalv0_debug.exp
^C:\Users\bluet87\Downloads\of_v0.11.0_vs2017_release\apps\myApps\gmc-finalv0\gmc-finalv0.vcxproj
C:\Users\bluet87\Downloads\of_v0.11.0_vs2017_release\apps\myApps\gmc-finalv0\bin\gmc-finalv0_debug.lib
C:\Users\bluet87\Downloads\of_v0.11.0_vs2017_release\apps\myApps\gmc-finalv0\bin\gmc-finalv0_debug.exp
^C:\Users\bluet87\Downloads\of_v0.11.0_vs2017_release\apps\myApps\gmc-finalv0\gmc-finalv0.vcxproj
C:\Users\bluet87\Downloads\of_v0.11.0_vs2017_release\apps\myApps\gmc-finalv0\bin\gmc-finalv0_debug.lib
C:\Users\bluet87\Downloads\of_v0.11.0_vs2017_release\apps\myApps\gmc-finalv0\bin\gmc-finalv0_debug.exp
^C:\Users\bluet87\Downloads\of_v0.11.0_vs2017_release\apps\myApps\gmc-finalv0\gmc-finalv0.vcxproj
C:\Users\bluet87\Downloads\of_v0.11.0_vs2017_release\apps\myApps\gmc-finalv0\bin\gmc-finalv0_debug.lib
C:\Users\bluet87\Downloads\of_v0.11.0_vs2017_release\apps\myApps\gmc-finalv0\bin\gmc-finalv0_debug.exp
^C:\Users\bluet87\Downloads\of_v0.11.0_vs2017_release\apps\myApps\gmc-finalv0\gmc-finalv0.vcxproj
C:\Users\bluet87\Downloads\of_v0.11.0_vs2017_release\apps\myApps\gmc-finalv0\bin\gmc-finalv0_debug.lib
C:\Users\bluet87\Downloads\of_v0.11.0_vs2017_release\apps\myApps\gmc-finalv0\bin\gmc-finalv0_debug.exp
^C:\Users\bluet87\Downloads\of_v0.11.0_vs2017_release\apps\myApps\gmc-finalv0\gmc-finalv0.vcxproj
C:\Users\bluet87\Downloads\of_v0.11.0_vs2017_release\apps\myApps\gmc-finalv0\bin\gmc-finalv0_debug.lib
C:\Users\bluet87\Downloads\of_v0.11.0_vs2017_release\apps\myApps\gmc-finalv0\bin\gmc-finalv0_debug.exp
^C:\Users\bluet87\Downloads\of_v0.11.0_vs2017_release\apps\myApps\gmc-finalv0\gmc-finalv0.vcxproj
C:\Users\bluet87\Downloads\of_v0.11.0_vs2017_release\apps\myApps\gmc-finalv0\bin\gmc-finalv0_debug.lib
C:\Users\bluet87\Downloads\of_v0.11.0_vs2017_release\apps\myApps\gmc-finalv0\bin\gmc-finalv0_debug.exp
^C:\Users\bluet87\Downloads\of_v0.11.0_vs2017_release\apps\myApps\gmc-finalv0\gmc-finalv0.vcxproj
C:\Users\bluet87\Downloads\of_v0.11.0_vs2017_release\apps\myApps\gmc-finalv0\bin\gmc-finalv0_debug.lib
C:\Users\bluet87\Downloads\of_v0.11.0_vs2017_release\apps\myApps\gmc-finalv0\bin\gmc-finalv0_debug.exp
^C:\Users\bluet87\Downloads\of_v0.11.0_vs2017_release\apps\myApps\gmc-finalv0\gmc-finalv0.vcxproj
C:\Users\bluet87\Downloads\of_v0.11.0_vs2017_release\apps\myApps\gmc-finalv0\bin\gmc-finalv0_debug.lib
C:\Users\bluet87\Downloads\of_v0.11.0_vs2017_release\apps\myApps\gmc-finalv0\bin\gmc-finalv0_debug.exp
^C:\Users\bluet87\Downloads\of_v0.11.0_vs2017_release\apps\myApps\gmc-finalv0\gmc-finalv0.vcxproj
C:\Users\bluet87\Downloads\of_v0.11.0_vs2017_release\apps\myApps\gmc-finalv0\bin\gmc-finalv0_debug.lib
C:\Users\bluet87\Downloads\of_v0.11.0_vs2017_release\apps\myApps\gmc-finalv0\bin\gmc-finalv0_debug.exp
^C:\Users\bluet87\Downloads\of_v0.11.0_vs2017_release\apps\myApps\gmc-finalv0\gmc-finalv0.vcxproj
C:\Users\bluet87\Downloads\of_v0.11.0_vs2017_release\apps\myApps\gmc-finalv0\bin\gmc-finalv0_debug.lib
C:\Users\bluet87\Downloads\of_v0.11.0_vs2017_release\apps\myApps\gmc-finalv0\bin\gmc-finalv0_debug.exp
^C:\Users\bluet87\Downloads\of_v0.11.0_vs2017_release\apps\myApps\gmc-finalv0\gmc-finalv0.vcxproj
C:\Users\bluet87\Downloads\of_v0.11.0_vs2017_release\apps\myApps\gmc-finalv0\bin\gmc-finalv0_debug.lib
C:\Users\bluet87\Downloads\of_v0.11.0_vs2017_release\apps\myApps\gmc-finalv0\bin\gmc-finalv0_debug.exp
^C:\Users\bluet87\Downloads\of_v0.11.0_vs2017_release\apps\myApps\gmc-finalv0\gmc-finalv0.vcxproj
C:\Users\bluet87\Downloads\of_v0.11.0_vs2017_release\apps\myApps\gmc-finalv0\bin\gmc-finalv0_debug.lib
C:\Users\bluet87\Downloads\of_v0.11.0_vs2017_release\apps\myApps\gmc-finalv0\bin\gmc-finalv0_debug.exp
^C:\Users\bluet87\Downloads\of_v0.11.0_vs2017_release\apps\myApps\gmc-finalv0\gmc-finalv0.vcxproj
C:\Users\bluet87\Downloads\of_v0.11.0_vs2017_release\apps\myApps\gmc-finalv0\bin\gmc-finalv0_debug.lib
C:\Users\bluet87\Downloads\of_v0.11.0_vs2017_release\apps\myApps\gmc-finalv0\bin\gmc-finalv0_debug.exp
^C:\Users\bluet87\Downloads\of_v0.11.0_vs2017_release\apps\myApps\gmc-finalv0\gmc-finalv0.vcxproj
C:\Users\bluet87\Downloads\of_v0.11.0_vs2017_release\apps\myApps\gmc-finalv0\bin\gmc-finalv0_debug.lib
C:\Users\bluet87\Downloads\of_v0.11.0_vs2017_release\apps\myApps\gmc-finalv0\bin\gmc-finalv0_debug.exp
^C:\Users\bluet87\Downloads\of_v0.11.0_vs2017_release\apps\myApps\gmc-finalv0\gmc-finalv0.vcxproj
C:\Users\bluet87\Downloads\of_v0.11.0_vs2017_release\apps\myApps\gmc-finalv0\bin\gmc-finalv0_debug.lib
C:\Users\bluet87\Downloads\of_v0.11.0_vs2017_release\apps\myApps\gmc-finalv0\bin\gmc-finalv0_debug.exp
^C:\Users\bluet87\Downloads\of_v0.11.0_vs2017_release\apps\myApps\gmc-finalv0\gmc-finalv0.vcxproj
C:\Users\bluet87\Downloads\of_v0.11.0_vs2017_release\apps\myApps\gmc-finalv0\bin\gmc-finalv0_debug.lib
C:\Users\bluet87\Downloads\of_v0.11.0_vs2017_release\apps\myApps\gmc-finalv0\bin\gmc-finalv0_debug.exp
^C:\Users\bluet87\Downloads\of_v0.11.0_vs2017_release\apps\myApps\gmc-finalv0\gmc-finalv0.vcxproj
C:\Users\bluet87\Downloads\of_v0.11.0_vs2017_release\apps\myApps\gmc-finalv0\bin\gmc-finalv0_debug.lib
C:\Users\bluet87\Downloads\of_v0.11.0_vs2017_release\apps\myApps\gmc-finalv0\bin\gmc-finalv0_debug.exp
^C:\Users\bluet87\Downloads\of_v0.11.0_vs2017_release\apps\myApps\gmc-finalv0\gmc-finalv0.vcxproj
C:\Users\bluet87\Downloads\of_v0.11.0_vs2017_release\apps\myApps\gmc-finalv0\bin\gmc-finalv0_debug.lib
C:\Users\bluet87\Downloads\of_v0.11.0_vs2017_release\apps\myApps\gmc-finalv0\bin\gmc-finalv0_debug.exp
^C:\Users\bluet87\Downloads\of_v0.11.0_vs2017_release\apps\myApps\gmc-finalv0\gmc-finalv0.vcxproj
C:\Users\bluet87\Downloads\of_v0.11.0_vs2017_release\apps\myApps\gmc-finalv0\bin\gmc-finalv0_debug.lib
C:\Users\bluet87\Downloads\of_v0.11.0_vs2017_release\apps\myApps\gmc-finalv0\bin\gmc-finalv0_debug.exp
^C:\Users\bluet87\Downloads\of_v0.11.0_vs2017_release\apps\myApps\gmc-finalv0\gmc-finalv0.vcxproj
C:\Users\bluet87\Downloads\of_v0.11.0_vs2017_release\apps\myApps\gmc-finalv0\bin\gmc-finalv0_debug.lib
C:\Users\bluet87\Downloads\of_v0.11.0_vs2017_release\apps\myApps\gmc-finalv0\bin\gmc-finalv0_debug.exp
^C:\Users\bluet87\Downloads\of_v0.11.0_vs2017_release\apps\myApps\gmc-finalv0\gmc-finalv0.vcxproj
C:\Users\bluet87\Downloads\of_v0.11.0_vs2017_release\apps\myApps\gmc-finalv0\bin\gmc-finalv0_debug.lib
C:\Users\bluet87\Downloads\of_v0.11.0_vs2017_release\apps\myApps\gmc-finalv0\bin\gmc-finalv0_debug.exp
^C:\Users\bluet87\Downloads\of_v0.11.0_vs2017_release\apps\myApps\gmc-finalv0\gmc-finalv0.vcxproj
C:\Users\bluet87\Downloads\of_v0.11.0_vs2017_release\apps\myApps\gmc-finalv0\bin\gmc-finalv0_debug.lib
C:\Users\bluet87\Downloads\of_v0.11.0_vs2017_release\apps\myApps\gmc-finalv0\bin\gmc-finalv0_debug.exp
^C:\Users\bluet87\Downloads\of_v0.11.0_vs2017_release\apps\myApps\gmc-finalv0\gmc-finalv0.vcxproj
C:\Users\bluet87\Downloads\of_v0.11.0_vs2017_release\apps\myApps\gmc-finalv0\bin\gmc-finalv0_debug.lib
C:\Users\bluet87\Downloads\of_v0.11.0_vs2017_release\apps\myApps\gmc-finalv0\bin\gmc-finalv0_debug.exp
^C:\Users\bluet87\Downloads\of_v0.11.0_vs2017_release\apps\myApps\gmc-finalv0\gmc-finalv0.vcxproj
C:\Users\bluet87\Downloads\of_v0.11.0_vs2017_release\apps\myApps\gmc-finalv0\bin\gmc-finalv0_debug.lib
C:\Users\bluet87\Downloads\of_v0.11.0_vs2017_release\apps\myApps\gmc-finalv0\bin\gmc-finalv0_debug.exp
^C:\Users\bluet87\Downloads\of_v0.11.0_vs2017_release\apps\myApps\gmc-finalv0\gmc-finalv0.vcxproj
C:\Users\bluet87\Downloads\of_v0.11.0_vs2017_release\apps\myApps\gmc-finalv0\bin\gmc-finalv0_debug.lib
C:\Users\bluet87\Downloads\of_v0.11.0_vs2017_release\apps\myApps\gmc-finalv0\bin\gmc-finalv0_debug.exp
^C:\Users\bluet87\Downloads\of_v0.11.0_vs2017_release\apps\myApps\gmc-finalv0\gmc-finalv0.vcxproj
C:\Users\bluet87\Downloads\of_v0.11.0_vs2017_release\apps\myApps\gmc-finalv0\bin\gmc-finalv0_debug.lib
C:\Users\bluet87\Downloads\of_v0.11.0_vs2017_release\apps\myApps\gmc-finalv0\bin\gmc-finalv0_debug.exp
^C:\Users\bluet87\Downloads\of_v0.11.0_vs2017_release\apps\myApps\gmc-finalv0\gmc-finalv0.vcxproj
C:\Users\bluet87\Downloads\of_v0.11.0_vs2017_release\apps\myApps\gmc-finalv0\bin\gmc-finalv0_debug.lib
C:\Users\bluet87\Downloads\of_v0.11.0_vs2017_release\apps\myApps\gmc-finalv0\bin\gmc-finalv0_debug.exp
^C:\Users\bluet87\Downloads\of_v0.11.0_vs2017_release\apps\myApps\gmc-finalv0\gmc-finalv0.vcxproj
C:\Users\bluet87\Downloads\of_v0.11.0_vs2017_release\apps\myApps\gmc-finalv0\bin\gmc-finalv0_debug.lib
C:\Users\bluet87\Downloads\of_v0.11.0_vs2017_release\apps\myApps\gmc-finalv0\bin\gmc-finalv0_debug.exp
^C:\Users\bluet87\Downloads\of_v0.11.0_vs2017_release\apps\myApps\gmc-finalv0\gmc-finalv0.vcxproj
C:\Users\bluet87\Downloads\of_v0.11.0_vs2017_release\apps\myApps\gmc-finalv0\bin\gmc-finalv0_debug.lib
C:\Users\bluet87\Downloads\of_v0.11.0_vs2017_release\apps\myApps\gmc-finalv0\bin\gmc-finalv0_debug.exp
^C:\Users\bluet87\Downloads\of_v0.11.0_vs2017_release\apps\myApps\gmc-finalv0\gmc-finalv0.vcxproj
C:\Users\bluet87\Downloads\of_v0.11.0_vs2017_release\apps\myApps\gmc-finalv0\bin\gmc-finalv0_debug.lib
C:\Users\bluet87\Downloads\of_v0.11.0_vs2017_release\apps\myApps\gmc-finalv0\bin\gmc-finalv0_debug.exp
^C:\Users\bluet87\Downloads\of_v0.11.0_vs2017_release\apps\myApps\gmc-finalv0\gmc-finalv0.vcxproj
C:\Users\bluet87\Downloads\of_v0.11.0_vs2017_release\apps\myApps\gmc-finalv0\bin\gmc-finalv0_debug.lib
C:\Users\bluet87\Downloads\of_v0.11.0_vs2017_release\apps\myApps\gmc-finalv0\bin\gmc-finalv0_debug.exp
^C:\Users\bluet87\Downloads\of_v0.11.0_vs2017_release\apps\myApps\gmc-finalv0\gmc-finalv0.vcxproj
C:\Users\bluet87\Downloads\of_v0.11.0_vs2017_release\apps\myApps\gmc-finalv0\bin\gmc-finalv0_debug.lib
C:\Users\bluet87\Downloads\of_v0.11.0_vs2017_release\apps\myApps\gmc-finalv0\bin\gmc-finalv0_debug.exp
^C:\Users\bluet87\Downloads\of_v0.11.0_vs2017_release\apps\myApps\gmc-finalv0\gmc-finalv0.vcxproj
C:\Users\bluet87\Downloads\of_v0.11.0_vs2017_release\apps\myApps\gmc-finalv0\bin\gmc-finalv0_debug.lib
C:\Users\bluet87\Downloads\of_v0.11.0_vs2017_release\apps\myApps\gmc-finalv0\bin\gmc-finalv0_debug.exp
^C:\Users\bluet87\Downloads\of_v0.11.0_vs2017_release\apps\myApps\gmc-finalv0\gmc-finalv0.vcxproj
C:\Users\bluet87\Downloads\of_v0.11.0_vs2017_release\apps\myApps\gmc-finalv0\bin\gmc-finalv0_debug.lib
C:\Users\bluet87\Downloads\of_v0.11.0_vs2017_release\apps\myApps\gmc-finalv0\bin\gmc-finalv0_debug.exp
^C:\Users\bluet87\Downloads\of_v0.11.0_vs2017_release\apps\myApps\gmc-finalv0\gmc-finalv0.vcxproj
C:\Users\bluet87\Downloads\of_v0.11.0_vs2017_release\apps\myApps\gmc-finalv0\bin\gmc-finalv0_debug.lib
C:\Users\bluet87\Downloads\of_v0.11.0_vs2017_release\apps\myApps\gmc-finalv0\bin\gmc-finalv0_debug.exp
^C:\Users\bluet87\Downloads\of_v0.11.0_vs2017_release\apps\myApps\gmc-finalv0\gmc-finalv0.vcxproj
C:\Users\bluet87\Downloads\of_v0.11.0_vs2017_release\apps\myApps\gmc-finalv0\bin\gmc-finalv0_debug.lib
C:\Users\bluet87\Downloads\of_v0.11.0_vs2017_release\apps\myApps\gmc-finalv0\bin\gmc-finalv0_debug.exp
^C:\Users\bluet87\Downloads\of_v0.11.0_vs2017_release\apps\myApps\gmc-finalv0\gmc-finalv0.vcxproj
C:\Users\bluet87\Downloads\of_v0.11.0_vs2017_release\apps\myApps\gmc-finalv0\bin\gmc-finalv0_debug.lib
C:\Users\bluet87\Downloads\of_v0.11.0_vs2017_release\apps\myApps\gmc-finalv0\bin\gmc-finalv0_debug.exp
^C:\Users\bluet87\Downloads\of_v0.11.0_vs2017_release\apps\myApps\gmc-finalv0\gmc-finalv0.vcxproj
C:\Users\bluet87\Downloads\of_v0.11.0_vs2017_release\apps\myApps\gmc-finalv0\bin\gmc-finalv0_debug.lib
C:\Users\bluet87\Downloads\of_v0.11.0_vs2017_release\apps\myApps\gmc-finalv0\bin\gmc-finalv0_debug.exp
^C:\Users\bluet87\Downloads\of_v0.11.0_vs2017_release\apps\myApps\gmc-finalv0\gmc-finalv0.vcxproj
C:\Users\bluet87\Downloads\of_v0.11.0_vs2017_release\apps\myApps\gmc-finalv0\bin\gmc-finalv0_debug.lib
C:\Users\bluet87\Downloads\of_v0.11.0_vs2017_release\apps\myApps\gmc-finalv0\bin\gmc-finalv0_debug.exp
^C:\Users\bluet87\Downloads\of_v0.11.0_vs2017_release\apps\myApps\gmc-finalv0\gmc-finalv0.vcxproj
C:\Users\bluet87\Downloads\of_v0.11.0_vs2017_release\apps\myApps\gmc-finalv0\bin\gmc-finalv0_debug.lib
C:\Users\bluet87\Downloads\of_v0.11.0_vs2017_release\apps\myApps\gmc-finalv0\bin\gmc-finalv0_debug.exp
^C:\Users\bluet87\Downloads\of_v0.11.0_vs2017_release\apps\myApps\gmc-finalv0\gmc-finalv0.vcxproj
C:\Users\bluet87\Downloads\of_v0.11.0_vs2017_release\apps\myApps\gmc-finalv0\bin\gmc-finalv0_debug.lib
C:\Users\bluet87\Downloads\of_v0.11.0_vs2017_release\apps\myApps\gmc-finalv0\bin\gmc-finalv0_debug.exp
^C:\Users\bluet87\Downloads\of_v0.11.0_vs2017_release\apps\myApps\gmc-finalv0\gmc-finalv0.vcxproj
C:\Users\bluet87\Downloads\of_v0.11.0_vs2017_release\apps\myApps\gmc-finalv0\bin\gmc-finalv0_debug.lib
C:\Users\bluet87\Downloads\of_v0.11.0_vs2017_release\apps\myApps\gmc-finalv0\bin\gmc-finalv0_debug.exp
^C:\Users\bluet87\Downloads\of_v0.11.0_vs2017_release\apps\myApps\gmc-finalv0\gmc-finalv0.vcxproj
C:\Users\bluet87\Downloads\of_v0.11.0_vs2017_release\apps\myApps\gmc-finalv0\bin\gmc-finalv0_debug.lib
C:\Users\bluet87\Downloads\of_v0.11.0_vs2017_release\apps\myApps\gmc-finalv0\bin\gmc-finalv0_debug.exp
^C:\Users\bluet87\Downloads\of_v0.11.0_vs2017_release\apps\myApps\gmc-finalv0\gmc-finalv0.vcxproj
C:\Users\bluet87\Downloads\of_v0.11.0_vs2017_release\apps\myApps\gmc-finalv0\bin\gmc-finalv0_debug.lib
C:\Users\bluet87\Downloads\of_v0.11.0_vs2017_release\apps\myApps\gmc-finalv0\bin\gmc-finalv0_debug.exp
^C:\Users\bluet87\Downloads\of_v0.11.0_vs2017_release\apps\myApps\gmc-finalv0\gmc-finalv0.vcxproj
C:\Users\bluet87\Downloads\of_v0.11.0_vs2017_release\apps\myApps\gmc-finalv0\bin\gmc-finalv0_debug.lib
C:\Users\bluet87\Downloads\of_v0.11.0_vs2017_release\apps\myApps\gmc-finalv0\bin\gmc-finalv0_debug.exp
^C:\Users\bluet87\Downloads\of_v0.11.0_vs2017_release\apps\myApps\gmc-finalv0\gmc-finalv0.vcxproj
C:\Users\bluet87\Downloads\of_v0.11.0_vs2017_release\apps\myApps\gmc-finalv0\bin\gmc-finalv0_debug.lib
C:\Users\bluet87\Downloads\of_v0.11.0_vs2017_release\apps\myApps\gmc-finalv0\bin\gmc-finalv0_debug.exp
^C:\Users\bluet87\Downloads\of_v0.11.0_vs2017_release\apps\myApps\gmc-finalv0\gmc-finalv0.vcxproj
C:\Users\bluet87\Downloads\of_v0.11.0_vs2017_release\apps\myApps\gmc-finalv0\bin\gmc-finalv0_debug.lib
C:\Users\bluet87\Downloads\of_v0.11.0_vs2017_release\apps\myApps\gmc-finalv0\bin\gmc-finalv0_debug.exp
^C:\Users\bluet87\Downloads\of_v0.11.0_vs2017_release\apps\myApps\gmc-finalv0\gmc-finalv0.vcxproj
C:\Users\bluet87\Downloads\of_v0.11.0_vs2017_release\apps\myApps\gmc-finalv0\bin\gmc-finalv0_debug.lib
C:\Users\bluet87\Downloads\of_v0.11.0_vs2017_release\apps\myApps\gmc-finalv0\bin\gmc-finalv0_debug.exp
^C:\Users\bluet87\Downloads\of_v0.11.0_vs2017_release\apps\myApps\gmc-finalv0\gmc-finalv0.vcxproj
C:\Users\bluet87\Downloads\of_v0.11.0_vs2017_release\apps\myApps\gmc-finalv0\bin\gmc-finalv0_debug.lib
C:\Users\bluet87\Downloads\of_v0.11.0_vs2017_release\apps\myApps\gmc-finalv0\bin\gmc-finalv0_debug.exp
^C:\Users\bluet87\Downloads\of_v0.11.0_vs2017_release\apps\myApps\gmc-finalv0\gmc-finalv0.vcxproj
C:\Users\bluet87\Downloads\of_v0.11.0_vs2017_release\apps\myApps\gmc-finalv0\bin\gmc-finalv0_debug.lib
C:\Users\bluet87\Downloads\of_v0.11.0_vs2017_release\apps\myApps\gmc-finalv0\bin\gmc-finalv0_debug.exp
^C:\Users\bluet87\Downloads\of_v0.11.0_vs2017_release\apps\myApps\gmc-finalv0\gmc-finalv0.vcxproj
C:\Users\bluet87\Downloads\of_v0.11.0_vs2017_release\apps\myApps\gmc-finalv0\bin\gmc-finalv0_debug.lib
C:\Users\bluet87\Downloads\of_v0.11.0_vs2017_release\apps\myApps\gmc-finalv0\bin\gmc-finalv0_debug.exp
^C:\Users\bluet87\Downloads\of_v0.11.0_vs2017_release\apps\myApps\gmc-finalv0\gmc-finalv0.vcxproj
C:\Users\bluet87\Downloads\of_v0.11.0_vs2017_release\apps\myApps\gmc-finalv0\bin\gmc-finalv0_debug.lib
C:\Users\bluet87\Downloads\of_v0.11.0_vs2017_release\apps\myApps\gmc-finalv0\bin\gmc-finalv0_debug.exp
^C:\Users\bluet87\Downloads\of_v0.11.0_vs2017_release\apps\myApps\gmc-finalv0\gmc-finalv0.vcxproj
C:\Users\bluet87\Downloads\of_v0.11.0_vs2017_release\apps\myApps\gmc-finalv0\bin\gmc-finalv0_debug.lib
C:\Users\bluet87\Downloads\of_v0.11.0_vs2017_release\apps\myApps\gmc-finalv0\bin\gmc-finalv0_debug.exp
^C:\Users\bluet87\Downloads\of_v0.11.0_vs2017_release\apps\myApps\gmc-finalv0\gmc-finalv0.vcxproj
C:\Users\bluet87\Downloads\of_v0.11.0_vs2017_release\apps\myApps\gmc-finalv0\bin\gmc-finalv0_debug.lib
C:\Users\bluet87\Downloads\of_v0.11.0_vs2017_release\apps\myApps\gmc-finalv0\bin\gmc-finalv0_debug.exp
^C:\Users\bluet87\Downloads\of_v0.11.0_vs2017_release\apps\myApps\gmc-finalv0\gmc-finalv0.vcxproj
C:\Users\bluet87\Downloads\of_v0.11.0_vs2017_release\apps\myApps\gmc-finalv0\bin\gmc-finalv0_debug.lib
C:\Users\bluet87\Downloads\of_v0.11.0_vs2017_release\apps\myApps\gmc-finalv0\bin\gmc-finalv0_debug.exp
^C:\Users\bluet87\Downloads\of_v0.11.0_vs2017_release\apps\myApps\gmc-finalv0\gmc-finalv0.vcxproj
C:\Users\bluet87\Downloads\of_v0.11.0_vs2017_release\apps\myApps\gmc-finalv0\bin\gmc-finalv0_debug.lib
C:\Users\bluet87\Downloads\of_v0.11.0_vs2017_release\apps\myApps\gmc-finalv0\bin\gmc-finalv0_debug.exp
^C:\Users\bluet87\Downloads\of_v0.11.0_vs2017_release\apps\myApps\gmc-finalv0\gmc-finalv0.vcxproj
C:\Users\bluet87\Downloads\of_v0.11.0_vs2017_release\apps\myApps\gmc-finalv0\bin\gmc-finalv0_debug.lib
C:\Users\bluet87\Downloads\of_v0.11.0_vs2017_release\apps\myApps\gmc-finalv0\bin\gmc-finalv0_debug.exp
^C:\Users\bluet87\Downloads\of_v0.11.0_vs2017_release\apps\myApps\gmc-finalv0\gmc-finalv0.vcxproj
C:\Users\bluet87\Downloads\of_v0.11.0_vs2017_release\apps\myApps\gmc-finalv0\bin\gmc-finalv0_debug.lib
C:\Users\bluet87\Downloads\of_v0.11.0_vs2017_release\apps\myApps\gmc-finalv0\bin\gmc-finalv0_debug.exp
^C:\Users\bluet87\Downloads\of_v0.11.0_vs2017_release\apps\myApps\gmc-finalv0\gmc-finalv0.vcxproj
C:\Users\bluet87\Downloads\of_v0.11.0_vs2017_release\apps\myApps\gmc-finalv0\bin\gmc-finalv0_debug.lib
C:\Users\bluet87\Downloads\of_v0.11.0_vs2017_release\apps\myApps\gmc-finalv0\bin\gmc-finalv0_debug.exp
^C:\Users\bluet87\Downloads\of_v0.11.0_vs2017_release\apps\myApps\gmc-finalv0\gmc-finalv0.vcxproj
C:\Users\bluet87\Downloads\of_v0.11.0_vs2017_release\apps\myApps\gmc-finalv0\bin\gmc-finalv0_debug.lib
C:\Users\bluet87\Downloads\of_v0.11.0_vs2017_release\apps\myApps\gmc-finalv0\bin\gmc-finalv0_debug.exp
^C:\Users\bluet87\Downloads\of_v0.11.0_vs2017_release\apps\myApps\gmc-finalv0\gmc-finalv0.vcxproj
C:\Users\bluet87\Downloads\of_v0.11.0_vs2017_release\apps\myApps\gmc-finalv0\bin\gmc-finalv0_debug.lib
C:\Users\bluet87\Downloads\of_v0.11.0_vs2017_release\apps\myApps\gmc-finalv0\bin\gmc-finalv0_debug.exp
^C:\Users\bluet87\Downloads\of_v0.11.0_vs2017_release\apps\myApps\gmc-finalv0\gmc-finalv0.vcxproj
C:\Users\bluet87\Downloads\of_v0.11.0_vs2017_release\apps\myApps\gmc-finalv0\bin\gmc-finalv0_debug.lib
C:\Users\bluet87\Downloads\of_v0.11.0_vs2017_release\apps\myApps\gmc-finalv0\bin\gmc-finalv0_debug.exp
^C:\Users\bluet87\Downloads\of_v0.11.0_vs2017_release\apps\myApps\gmc-finalv0\gmc-finalv0.vcxproj
C:\Users\bluet87\Downloads\of_v0.11.0_vs2017_release\apps\myApps\gmc-finalv0\bin\gmc-finalv0_debug.lib
C:\Users\bluet87\Downloads\of_v0.11.0_vs2017_release\apps\myApps\gmc-finalv0\bin\gmc-finalv0_debug.exp
^C:\Users\bluet87\Downloads\of_v0.11.0_vs2017_release\apps\myApps\gmc-finalv0\gmc-finalv0.vcxproj
C:\Users\bluet87\Downloads\of_v0.11.0_vs2017_release\apps\myApps\gmc-finalv0\bin\gmc-finalv0_debug.lib
C:\Users\bluet87\Downloads\of_v0.11.0_vs2017_release\apps\myApps\gmc-finalv0\bin\gmc-finalv0_debug.exp
^C:\Users\bluet87\Downloads\of_v0.11.0_vs2017_release\apps\myApps\gmc-finalv0\gmc-finalv0.vcxproj
C:\Users\bluet87\Downloads\of_v0.11.0_vs2017_release\apps\myApps\gmc-finalv0\bin\gmc-finalv0_debug.lib
C:\Users\bluet87\Downloads\of_v0.11.0_vs2017_release\apps\myApps\gmc-finalv0\bin\gmc-finalv0_debug.exp
^C:\Users\bluet87\Downloads\of_v0.11.0_vs2017_release\apps\myApps\gmc-finalv0\gmc-finalv0.vcxproj
C:\Users\bluet87\Downloads\of_v0.11.0_vs2017_release\apps\myApps\gmc-finalv0\bin\gmc-finalv0_debug.lib
C:\Users\bluet87\Downloads\of_v0.11.0_vs2017_release\apps\myApps\gmc-finalv0\bin\gmc-finalv0_debug.exp
^C:\Users\bluet87\Downloads\of_v0.11.0_vs2017_release\apps\myApps\gmc-finalv0\gmc-finalv0.vcxproj
C:\Users\bluet87\Downloads\of_v0.11.0_vs2017_release\apps\myApps\gmc-finalv0\bin\gmc-finalv0_debug.lib
C:\Users\bluet87\Downloads\of_v0.11.0_vs2017_release\apps\myApps\gmc-finalv0\bin\gmc-finalv0_debug.exp
^C:\Users\bluet87\Downloads\of_v0.11.0_vs2017_release\apps\myApps\gmc-finalv0\gmc-finalv0.vcxproj
C:\Users\bluet87\Downloads\of_v0.11.0_vs2017_release\apps\myApps\gmc-finalv0\bin\gmc-finalv0_debug.lib
C:\Users\bluet87\Downloads\of_v0.11.0_vs2017_release\apps\myApps\gmc-finalv0\bin\gmc-finalv0_debug.exp
^C:\Users\bluet87\Downloads\of_v0.11.0_vs2017_release\apps\myApps\gmc-finalv0\gmc-finalv0.vcxproj
C:\Users\bluet87\Downloads\of_v0.11.0_vs2017_release\apps\myApps\gmc-finalv0\bin\gmc-finalv0_debug.lib
C:\Users\bluet87\Downloads\of_v0.11.0_vs2017_release\apps\myApps\gmc-finalv0\bin\gmc-finalv0_debug.exp
^C:\Users\bluet87\Downloads\of_v0.11.0_vs2017_release\apps\myApps\gmc-finalv0\gmc-finalv0.vcxproj
C:\Users\bluet87\Downloads\of_v0.11.0_vs2017_release\apps\myApps\gmc-finalv0\bin\gmc-finalv0_debug.lib
C:\Users\bluet87\Downloads\of_v0.11.0_vs2017_release\apps\myApps\gmc-finalv0\bin\gmc-finalv0_debug.exp
^C:\Users\bluet87\Downloads\of_v0.11.0_vs2017_release\apps\myApps\gmc-finalv0\gmc-finalv0.vcxproj
C:\Users\bluet87\Downloads\of_v0.11.0_vs2017_release\apps\myApps\gmc-finalv0\bin\gmc-finalv0_debug.lib
C:\Users\bluet87\Downloads\of_v0.11.0_vs2017_release\apps\myApps\gmc-finalv0\bin\gmc-finalv0_debug.exp
^C:\Users\bluet87\Downloads\of_v0.11.0_vs2017_release\apps\myApps\gmc-finalv0\gmc-finalv0.vcxproj
C:\Users\bluet87\Downloads\of_v0.11.0_vs2017_release\apps\myApps\gmc-finalv0\bin\gmc-finalv0_debug.lib
C:\Users\bluet87\Downloads\of_v0.11.0_vs2017_release\apps\myApps\gmc-finalv0\bin\gmc-finalv0_debug.exp
^C:\Users\bluet87\Downloads\of_v0.11.0_vs2017_release\apps\myApps\gmc-finalv0\gmc-finalv0.vcxproj
C:\Users\bluet87\Downloads\of_v0.11.0_vs2017_release\apps\myApps\gmc-finalv0\bin\gmc-finalv0_debug.lib
C:\Users\bluet87\Downloads\of_v0.11.0_vs2017_release\apps\myApps\gmc-finalv0\bin\gmc-finalv0_debug.exp
^C:\Users\bluet87\Downloads\of_v0.11.0_vs2017_release\apps\myApps\gmc-finalv0\gmc-finalv0.vcxproj
C:\Users\bluet87\Downloads\of_v0.11.0_vs2017_release\apps\myApps\gmc-finalv0\bin\gmc-finalv0_debug.lib
C:\Users\bluet87\Downloads\of_v0.11.0_vs2017_release\apps\myApps\gmc-finalv0\bin\gmc-finalv0_debug.exp
^C:\Users\bluet87\Downloads\of_v0.11.0_vs2017_release\apps\myApps\gmc-finalv0\gmc-finalv0.vcxproj
C:\Users\bluet87\Downloads\of_v0.11.0_vs2017_release\apps\myApps\gmc-finalv0\bin\gmc-finalv0_debug.lib
C:\Users\bluet87\Downloads\of_v0.11.0_vs2017_release\apps\myApps\gmc-finalv0\bin\gmc-finalv0_debug.exp
^C:\Users\bluet87\Downloads\of_v0.11.0_vs2017_release\apps\myApps\gmc-finalv0\gmc-finalv0.vcxproj
C:\Users\bluet87\Downloads\of_v0.11.0_vs2017_release\apps\myApps\gmc-finalv0\bin\gmc-finalv0_debug.lib
C:\Users\bluet87\Downloads\of_v0.11.0_vs2017_release\apps\myApps\gmc-finalv0\bin\gmc-finalv0_debug.exp
^C:\Users\bluet87\Downloads\of_v0.11.0_vs2017_release\apps\myApps\gmc-finalv0\gmc-finalv0.vcxproj
C:\Users\bluet87\Downloads\of_v0.11.0_vs2017_release\apps\myApps\gmc-finalv0\bin\gmc-finalv0_debug.lib
C:\Users\bluet87\Downloads\of_v0.11.0_vs2017_release\apps\myApps\gmc-finalv0\bin\gmc-finalv0_debug.exp
^C:\Users\bluet87\Downloads\of_v0.11.0_vs2017_release\apps\myApps\gmc-finalv0\gmc-finalv0.vcxproj
C:\Users\bluet87\Downloads\of_v0.11.0_vs2017_release\apps\myApps\gmc-finalv0\bin\gmc-finalv0_debug.lib
C:\Users\bluet87\Downloads\of_v0.11.0_vs2017_release\apps\myApps\gmc-finalv0\bin\gmc-finalv0_debug.exp
^C:\Users\bluet87\Downloads\of_v0.11.0_vs2017_release\apps\myApps\gmc-finalv0\gmc-finalv0.vcxproj
C:\Users\bluet87\Downloads\of_v0.11.0_vs2017_release\apps\myApps\gmc-finalv0\bin\gmc-finalv0_debug.lib
C:\Users\bluet87\Downloads\of_v0.11.0_vs2017_release\apps\myApps\gmc-finalv0\bin\gmc-finalv0_debug.exp
^C:\Users\bluet87\Downloads\of_v0.11.0_vs2017_release\apps\myApps\gmc-finalv0\gmc-finalv0.vcxproj
C:\Users\bluet87\Downloads\of_v0.11.0_vs2017_release\apps\myApps\gmc-finalv0\bin\gmc-finalv0_debug.lib
C:\Users\bluet87\Downloads\of_v0.11.0_vs2017_release\apps\myApps\gmc-finalv0\bin\gmc-finalv0_debug.exp
^C:\Users\bluet87\Downloads\of_v0.11.0_vs2017_release\apps\myApps\gmc-finalv0\gmc-finalv0.vcxproj
C:\Users\bluet87\Downloads\of_v0.11.0_vs2017_release\apps\myApps\gmc-finalv0\bin\gmc-finalv0_debug.lib
C:\Users\bluet87\Downloads\of_v0.11.0_vs2017_release\apps\myApps\gmc-finalv0\bin\gmc-finalv0_debug.exp
^C:\Users\bluet87\Downloads\of_v0.11.0_vs2017_release\apps\myApps\gmc-finalv0\gmc-finalv0.vcxproj
C:\Users\bluet87\Downloads\of_v0.11.0_vs2017_release\apps\myApps\gmc-finalv0\bin\gmc-finalv0_debug.lib
C:\Users\bluet87\Downloads\of_v0.11.0_vs2017_release\apps\myApps\gmc-finalv0\bin\gmc-finalv0_debug.exp
^C:\Users\bluet87\Downloads\of_v0.11.0_vs2017_release\apps\myApps\gmc-finalv0\gmc-finalv0.vcxproj
C:\Users\bluet87\Downloads\of_v0.11.0_vs2017_release\apps\myApps\gmc-finalv0\bin\gmc-finalv0_debug.lib
C:\Users\bluet87\Downloads\of_v0.11.0_vs2017_release\apps\myApps\gmc-finalv0\bin\gmc-finalv0_debug.exp
^C:\Users\bluet87\Downloads\of_v0.11.0_vs2017_release\apps\myApps\gmc-finalv0\gmc-finalv0.vcxproj
C:\Users\bluet87\Downloads\of_v0.11.0_vs2017_release\apps\myApps\gmc-finalv0\bin\gmc-finalv0_debug.lib
C:\Users\bluet87\Downloads\of_v0.11.0_vs2017_release\apps\myApps\gmc-finalv0\bin\gmc-finalv0_debug.exp
^C:\Users\bluet87\Downloads\of_v0.11.0_vs2017_release\apps\myApps\gmc-finalv0\gmc-finalv0.vcxproj
C:\Users\bluet87\Downloads\of_v0.11.0_vs2017_release\apps\myApps\gmc-finalv0\bin\gmc-finalv0_debug.lib
C:\Users\bluet87\Downloads\of_v0.11.0_vs2017_release\apps\myApps\gmc-finalv0\bin\gmc-finalv0_debug.exp
^C:\Users\bluet87\Downloads\of_v0.11.0_vs2017_release\apps\myApps\gmc-finalv0\gmc-finalv0.vcxproj
C:\Users\bluet87\Downloads\of_v0.11.0_vs2017_release\apps\myApps\gmc-finalv0\bin\gmc-finalv0_debug.lib
C:\Users\bluet87\Downloads\of_v0.11.0_vs2017_release\apps\myApps\gmc-finalv0\bin\gmc-finalv0_debug.exp
^C:\Users\bluet87\Downloads\of_v0.11.0_vs2017_release\apps\myApps\gmc-finalv0\gmc-finalv0.vcxproj
C:\Users\bluet87\Downloads\of_v0.11.0_vs2017_release\apps\myApps\gmc-finalv0\bin\gmc-finalv0_debug.lib
C:\Users\bluet87\Downloads\of_v0.11.0_vs2017_release\apps\myApps\gmc-finalv0\bin\gmc-finalv0_debug.exp
^C:\Users\bluet87\Downloads\of_v0.11.0_vs2017_release\apps\myApps\gmc-finalv0\gmc-finalv0.vcxproj
C:\Users\bluet87\Downloads\of_v0.11.0_vs2017_release\apps\myApps\gmc-finalv0\bin\gmc-finalv0_debug.lib
C:\Users\bluet87\Downloads\of_v0.11.0_vs2017_release\apps\myApps\gmc-finalv0\bin\gmc-finalv0_debug.exp
^C:\Users\bluet87\Downloads\of_v0.11.0_vs2017_release\apps\myApps\gmc-finalv0\gmc-finalv0.vcxproj
C:\Users\bluet87\Downloads\of_v0.11.0_vs2017_release\apps\myApps\gmc-finalv0\bin\gmc-finalv0_debug.lib
C:\Users\bluet87\Downloads\of_v0.11.0_vs2017_release\apps\myApps\gmc-finalv0\bin\gmc-finalv0_debug.exp
^C:\Users\bluet87\Downloads\of_v0.11.0_vs2017_release\apps\myApps\gmc-finalv0\gmc-finalv0.vcxproj
C:\Users\bluet87\Downloads\of_v0.11.0_vs2017_release\apps\myApps\gmc-finalv0\bin\gmc-finalv0_debug.lib
C:\Users\bluet87\Downloads\of_v0.11.0_vs2017_release\apps\myApps\gmc-finalv0\bin\gmc-finalv0_debug.exp
^C:\Users\bluet87\Downloads\of_v0.11.0_vs2017_release\apps\myApps\gmc-finalv0\gmc-finalv0.vcxproj
C:\Users\bluet87\Downloads\of_v0.11.0_vs2017_release\apps\myApps\gmc-finalv0\bin\gmc-finalv0_debug.lib
C:\Users\bluet87\Downloads\of_v0.11.0_vs2017_release\apps\myApps\gmc-finalv0\bin\gmc-finalv0_debug.exp
^C:\Users\bluet87\Downloads\of_v0.11.0_vs2017_release\apps\myApps\gmc-finalv0\gmc-finalv0.vcxproj
C:\Users\bluet87\Downloads\of_v0.11.0_vs2017_release\apps\myApps\gmc-finalv0\bin\gmc-finalv0_debug.lib
C:\Users\bluet87\Downloads\of_v0.11.0_vs2017_release\apps\myApps\gmc-finalv0\bin\gmc-finalv0_debug.exp
^C:\Users\bluet87\Downloads\of_v0.11.0_vs2017_release\apps\myApps\gmc-finalv0\gmc-finalv0.vcxproj
C:\Users\bluet87\Downloads\of_v0.11.0_vs2017_release\apps\myApps\gmc-finalv0\bin\gmc-finalv0_debug.lib
C:\Users\bluet87\Downloads\of_v0.11.0_vs2017_release\apps\myApps\gmc-finalv0\bin\gmc-finalv0_debug.exp
^C:\Users\bluet87\Downloads\of_v0.11.0_vs2017_release\apps\myApps\gmc-finalv0\gmc-finalv0.vcxproj
C:\Users\bluet87\Downloads\of_v0.11.0_vs2017_release\apps\myApps\gmc-finalv0\bin\gmc-finalv0_debug.lib
C:\Users\bluet87\Downloads\of_v0.11.0_vs2017_release\apps\myApps\gmc-finalv0\bin\gmc-finalv0_debug.exp
^C:\Users\bluet87\Downloads\of_v0.11.0_vs2017_release\apps\myApps\gmc-finalv0\gmc-finalv0.vcxproj
C:\Users\bluet87\Downloads\of_v0.11.0_vs2017_release\apps\myApps\gmc-finalv0\bin\gmc-finalv0_debug.lib
C:\Users\bluet87\Downloads\of_v0.11.0_vs2017_release\apps\myApps\gmc-finalv0\bin\gmc-finalv0_debug.exp
^C:\Users\bluet87\Downloads\of_v0.11.0_vs2017_release\apps\myApps\gmc-finalv0\gmc-finalv0.vcxproj
C:\Users\bluet87\Downloads\of_v0.11.0_vs2017_release\apps\myApps\gmc-finalv0\bin\gmc-finalv0_debug.lib
C:\Users\bluet87\Downloads\of_v0.11.0_vs2017_release\apps\myApps\gmc-finalv0\bin\gmc-finalv0_debug.exp
^C:\Users\bluet87\Downloads\of_v0.11.0_vs2017_release\apps\myApps\gmc-finalv0\gmc-finalv0.vcxproj
C:\Users\bluet87\Downloads\of_v0.11.0_vs2017_release\apps\myApps\gmc-finalv0\bin\gmc-finalv0_debug.lib
C:\Users\bluet87\Downloads\of_v0.11.0_vs2017_release\apps\myApps\gmc-finalv0\bin\gmc-finalv0_debug.exp
^C:\Users\bluet87\Downloads\of_v0.11.0_vs2017_release\apps\myApps\gmc-finalv0\gmc-finalv0.vcxproj
C:\Users\bluet87\Downloads\of_v0.11.0_vs2017_release\apps\myApps\gmc-finalv0\bin\gmc-finalv0_debug.lib
C:\Users\bluet87\Downloads\of_v0.11.0_vs2017_release\apps\myApps\gmc-finalv0\bin\gmc-finalv0_debug.exp
^C:\Users\bluet87\Downloads\of_v0.11.0_vs2017_release\apps\myApps\gmc-finalv0\gmc-finalv0.vcxproj
C:\Users\bluet87\Downloads\of_v0.11.0_vs2017_release\apps\myApps\gmc-finalv0\bin\gmc-finalv0_debug.lib
C:\Users\bluet87\Downloads\of_v0.11.0_vs2017_release\apps\myApps\gmc-finalv0\bin\gmc-finalv0_debug.exp
^C:\Users\bluet87\Downloads\of_v0.11.0_vs2017_release\apps\myApps\gmc-finalv0\gmc-finalv0.vcxproj
C:\Users\bluet87\Downloads\of_v0.11.0_vs2017_release\apps\myApps\gmc-finalv0\bin\gmc-finalv0_debug.lib
C:\Users\bluet87\Downloads\of_v0.11.0_vs2017_release\apps\myApps\gmc-finalv0\bin\gmc-finalv0_debug.exp
^C:\Users\bluet87\Downloads\of_v0.11.0_vs2017_release\apps\myApps\gmc-finalv0\gmc-finalv0.vcxproj
C:\Users\bluet87\Downloads\of_v0.11.0_vs2017_release\apps\myApps\gmc-finalv0\bin\gmc-finalv0_debug.lib
C:\Users\bluet87\Downloads\of_v0.11.0_vs2017_release\apps\myApps\gmc-finalv0\bin\gmc-finalv0_debug.exp
^C:\Users\bluet87\Downloads\of_v0.11.0_vs2017_release\apps\myApps\gmc-finalv0\gmc-finalv0.vcxproj
C:\Users\bluet87\Downloads\of_v0.11.0_vs2017_release\apps\myApps\gmc-finalv0\bin\gmc-finalv0_debug.lib
C:\Users\bluet87\Downloads\of_v0.11.0_vs2017_release\apps\myApps\gmc-finalv0\bin\gmc-finalv0_debug.exp
^C:\Users\bluet87\Downloads\of_v0.11.0_vs2017_release\apps\myApps\gmc-finalv0\gmc-finalv0.vcxproj
C:\Users\bluet87\Downloads\of_v0.11.0_vs2017_release\apps\myApps\gmc-finalv0\bin\gmc-finalv0_debug.lib
C:\Users\bluet87\Downloads\of_v0.11.0_vs2017_release\apps\myApps\gmc-finalv0\bin\gmc-finalv0_debug.exp
^C:\Users\bluet87\Downloads\of_v0.11.0_vs2017_release\apps\myApps\gmc-finalv0\gmc-finalv0.vcxproj
C:\Users\bluet87\Downloads\of_v0.11.0_vs2017_release\apps\myApps\gmc-finalv0\bin\gmc-finalv0_debug.lib
C:\Users\bluet87\Downloads\of_v0.11.0_vs2017_release\apps\myApps\gmc-finalv0\bin\gmc-finalv0_debug.exp
^C:\Users\bluet87\Downloads\of_v0.11.0_vs2017_release\apps\myApps\gmc-finalv0\gmc-finalv0.vcxproj
C:\Users\bluet87\Downloads\of_v0.11.0_vs2017_release\apps\myApps\gmc-finalv0\bin\gmc-finalv0_debug.lib
C:\Users\bluet87\Downloads\of_v0.11.0_vs2017_release\apps\myApps\gmc-finalv0\bin\gmc-finalv0_debug.exp
^C:\Users\bluet87\Downloads\of_v0.11.0_vs2017_release\apps\myApps\gmc-finalv0\gmc-finalv0.vcxproj
C:\Users\bluet87\Downloads\of_v0.11.0_vs2017_release\apps\myApps\gmc-finalv0\bin\gmc-finalv0_debug.lib
C:\Users\bluet87\Downloads\of_v0.11.0_vs2017_release\apps\myApps\gmc-finalv0\bin\gmc-finalv0_debug.exp
^C:\Users\bluet87\Downloads\of_v0.11.0_vs2017_release\apps\myApps\gmc-finalv0\gmc-finalv0.vcxproj
C:\Users\bluet87\Downloads\of_v0.11.0_vs2017_release\apps\myApps\gmc-finalv0\bin\gmc-finalv0_debug.lib
C:\Users\bluet87\Downloads\of_v0.11.0_vs2017_release\apps\myApps\gmc-finalv0\bin\gmc-finalv0_debug.exp
^C:\Users\bluet87\Downloads\of_v0.11.0_vs2017_release\apps\myApps\gmc-finalv0\gmc-finalv0.vcxproj
C:\Users\bluet87\Downloads\of_v0.11.0_vs2017_release\apps\myApps\gmc-finalv0\bin\gmc-finalv0_debug.lib
C:\Users\bluet87\Downloads\of_v0.11.0_vs2017_release\apps\myApps\gmc-finalv0\bin\gmc-finalv0_debug.exp
^C:\Users\bluet87\Downloads\of_v0.11.0_vs2017_release\apps\myApps\gmc-finalv0\gmc-finalv0.vcxproj
C:\Users\bluet87\Downloads\of_v0.11.0_vs2017_release\apps\myApps\gmc-finalv0\bin\gmc-finalv0_debug.lib
C:\Users\bluet87\Downloads\of_v0.11.0_vs2017_release\apps\myApps\gmc-finalv0\bin\gmc-finalv0_debug.exp
^C:\Users\bluet87\Downloads\of_v0.11.0_vs2017_release\apps\myApps\gmc-finalv0\gmc-finalv0.vcxproj
C:\Users\bluet87\Downloads\of_v0.11.0_vs2017_release\apps\myApps\gmc-finalv0\bin\gmc-finalv0_debug.lib
C:\Users\bluet87\Downloads\of_v0.11.0_vs2017_release\apps\myApps\gmc-finalv0\bin\gmc-finalv0_debug.exp
^C:\Users\bluet87\Downloads\of_v0.11.0_vs2017_release\apps\myApps\gmc-finalv0\gmc-finalv0.vcxproj
C:\Users\bluet87\Downloads\of_v0.11.0_vs2017_release\apps\myApps\gmc-finalv0\bin\gmc-finalv0_debug.lib
C:\Users\bluet87\Downloads\of_v0.11.0_vs2017_release\apps\myApps\gmc-finalv0\bin\gmc-finalv0_debug.exp
^C:\Users\bluet87\Downloads\of_v0.11.0_vs2017_release\apps\myApps\gmc-finalv0\gmc-finalv0.vcxproj
C:\Users\bluet87\Downloads\of_v0.11.0_vs2017_release\apps\myApps\gmc-finalv0\bin\gmc-finalv0_debug.lib
C:\Users\bluet87\Downloads\of_v0.11.0_vs2017_release\apps\myApps\gmc-finalv0\bin\gmc-finalv0_debug.exp
^C:\Users\bluet87\Downloads\of_v0.11.0_vs2017_release\apps\myApps\gmc-finalv0\gmc-finalv0.vcxproj
C:\Users\bluet87\Downloads\of_v0.11.0_vs2017_release\apps\myApps\gmc-finalv0\bin\gmc-finalv0_debug.lib
C:\Users\bluet87\Downloads\of_v0.11.0_vs2017_release\apps\myApps\gmc-finalv0\bin\gmc-finalv0_debug.exp
^C:\Users\bluet87\Downloads\of_v0.11.0_vs2017_release\apps\myApps\gmc-finalv0\gmc-finalv0.vcxproj
C:\Users\bluet87\Downloads\of_v0.11.0_vs2017_release\apps\myApps\gmc-finalv0\bin\gmc-finalv0_debug.lib
C:\Users\bluet87\Downloads\of_v0.11.0_vs2017_release\apps\myApps\gmc-finalv0\bin\gmc-finalv0_debug.exp
^C:\Users\bluet87\Downloads\of_v0.11.0_vs2017_release\apps\myApps\gmc-finalv0\gmc-finalv0.vcxproj
C:\Users\bluet87\Downloads\of_v0.11.0_vs2017_release\apps\myApps\gmc-finalv0\bin\gmc-finalv0_debug.lib
C:\Users\bluet87\Downloads\of_v0.11.0_vs2017_release\apps\myApps\gmc-finalv0\bin\gmc-finalv0_debug.exp
^C:\Users\bluet87\Downloads\of_v0.11.0_vs2017_release\apps\myApps\gmc-finalv0\gmc-finalv0.vcxproj
C:\Users\bluet87\Downloads\of_v0.11.0_vs2017_release\apps\myApps\gmc-finalv0\bin\gmc-finalv0_debug.lib
C:\Users\bluet87\Downloads\of_v0.11.0_vs2017_release\apps\myApps\gmc-finalv0\bin\gmc-finalv0_debug.exp
^C:\Users\bluet87\Downloads\of_v0.11.0_vs2017_release\apps\myApps\gmc-finalv0\gmc-finalv0.vcxproj
C:\Users\bluet87\Downloads\of_v0.11.0_vs2017_release\apps\myApps\gmc-finalv0\bin\gmc-finalv0_debug.lib
C:\Users\bluet87\Downloads\of_v0.11.0_vs2017_release\apps\myApps\gmc-finalv0\bin\gmc-finalv0_debug.exp
^C:\Users\bluet87\Downloads\of_v0.11.0_vs2017_release\apps\myApps\gmc-finalv0\gmc-finalv0.vcxproj
C:\Users\bluet87\Downloads\of_v0.11.0_vs2017_release\apps\myApps\gmc-finalv0\bin\gmc-finalv0_debug.lib
C:\Users\bluet87\Downloads\of_v0.11.0_vs2017_release\apps\myApps\gmc-finalv0\bin\gmc-finalv0_debug.exp
^C:\Users\bluet87\Downloads\of_v0.11.0_vs2017_release\apps\myApps\gmc-finalv0\gmc-finalv0.vcxproj
C:\Users\bluet87\Downloads\of_v0.11.0_vs2017_release\apps\myApps\gmc-finalv0\bin\gmc-finalv0_debug.lib
C:\Users\bluet87\Downloads\of_v0.11.0_vs2017_release\apps\myApps\gmc-finalv0\bin\gmc-finalv0_debug.exp
^C:\Users\bluet87\Downloads\of_v0.11.0_vs2017_release\apps\myApps\gmc-finalv0\gmc-finalv0.vcxproj
C:\Users\bluet87\Downloads\of_v0.11.0_vs2017_release\apps\myApps\gmc-finalv0\bin\gmc-finalv0_debug.lib
C:\Users\bluet87\Downloads\of_v0.11.0_vs2017_release\apps\myApps\gmc-finalv0\bin\gmc-finalv0_debug.exp
^C:\Users\bluet87\Downloads\of_v0.11.0_vs2017_release\apps\myApps\gmc-finalv0\gmc-finalv0.vcxproj
C:\Users\bluet87\Downloads\of_v0.11.0_vs2017_release\apps\myApps\gmc-finalv0\bin\gmc-finalv0_debug.lib
C:\Users\bluet87\Downloads\of_v0.11.0_vs2017_release\apps\myApps\gmc-finalv0\bin\gmc-finalv0_debug.exp
^C:\Users\bluet87\Downloads\of_v0.11.0_vs2017_release\apps\myApps\gmc-finalv0\gmc-finalv0.vcxproj
C:\Users\bluet87\Downloads\of_v0.11.0_vs2017_release\apps\myApps\gmc-finalv0\bin\gmc-finalv0_debug.lib
C:\Users\bluet87\Downloads\of_v0.11.0_vs2017_release\apps\myApps\gmc-finalv0\bin\gmc-finalv0_debug.exp
^C:\Users\bluet87\Downloads\of_v0.11.0_vs2017_release\apps\myApps\gmc-finalv0\gmc-finalv0.vcxproj
C:\Users\bluet87\Downloads\of_v0.11.0_vs2017_release\apps\myApps\gmc-finalv0\bin\gmc-finalv0_debug.lib
C:\Users\bluet87\Downloads\of_v0.11.0_vs2017_release\apps\myApps\gmc-finalv0\bin\gmc-finalv0_debug.exp
^C:\Users\bluet87\Downloads\of_v0.11.0_vs2017_release\apps\myApps\gmc-finalv0\gmc-finalv0.vcxproj
C:\Users\bluet87\Downloads\of_v0.11.0_vs2017_release\apps\myApps\gmc-finalv0\bin\gmc-finalv0_debug.lib
C:\Users\bluet87\Downloads\of_v0.11.0_vs2017_release\apps\myApps\gmc-finalv0\bin\gmc-finalv0_debug.exp
^C:\Users\bluet87\Downloads\of_v0.11.0_vs2017_release\apps\myApps\gmc-finalv0\gmc-finalv0.vcxproj
C:\Users\bluet87\Downloads\of_v0.11.0_vs2017_release\apps\myApps\gmc-finalv0\bin\gmc-finalv0_debug.lib
C:\Users\bluet87\Downloads\of_v0.11.0_vs2017_release\apps\myApps\gmc-finalv0\bin\gmc-finalv0_debug.exp
^C:\Users\bluet87\Downloads\of_v0.11.0_vs2017_release\apps\myApps\gmc-finalv0\gmc-finalv0.vcxproj
C:\Users\bluet87\Downloads\of_v0.11.0_vs2017_release\apps\myApps\gmc-finalv0\bin\gmc-finalv0_debug.lib
C:\Users\bluet87\Downloads\of_v0.11.0_vs2017_release\apps\myApps\gmc-finalv0\bin\gmc-finalv0_debug.exp
^C:\Users\bluet87\Downloads\of_v0.11.0_vs2017_release\apps\myApps\gmc-finalv0\gmc-finalv0.vcxproj
C:\Users\bluet87\Downloads\of_v0.11.0_vs2017_release\apps\myApps\gmc-finalv0\bin\gmc-finalv0_debug.lib
C:\Users\bluet87\Downloads\of_v0.11.0_vs2017_release\apps\myApps\gmc-finalv0\bin\gmc-finalv0_debug.exp
^C:\Users\bluet87\Downloads\of_v0.11.0_vs2017_release\apps\myApps\gmc-finalv0\gmc-finalv0.vcxproj
C:\Users\bluet87\Downloads\of_v0.11.0_vs2017_release\apps\myApps\gmc-finalv0\bin\gmc-finalv0_debug.lib
C:\Users\bluet87\Downloads\of_v0.11.0_vs2017_release\apps\myApps\gmc-finalv0\bin\gmc-finalv0_debug.exp
^C:\Users\bluet87\Downloads\of_v0.11.0_vs2017_release\apps\myApps\gmc-finalv0\gmc-finalv0.vcxproj
C:\Users\bluet87\Downloads\of_v0.11.0_vs2017_release\apps\myApps\gmc-finalv0\bin\gmc-finalv0_debug.lib
C:\Users\bluet87\Downloads\of_v0.11.0_vs2017_release\apps\myApps\gmc-finalv0\bin\gmc-finalv0_debug.exp
^C:\Users\bluet87\Downloads\of_v0.11.0_vs2017_release\apps\myApps\gmc-finalv0\gmc-finalv0.vcxproj
C:\Users\bluet87\Downloads\of_v0.11.0_vs2017_release\apps\myApps\gmc-finalv0\bin\gmc-finalv0_debug.lib
C:\Users\bluet87\Downloads\of_v0.11.0_vs2017_release\apps\myApps\gmc-finalv0\bin\gmc-finalv0_debug.exp
^C:\Users\bluet87\Downloads\of_v0.11.0_vs2017_release\apps\myApps\gmc-finalv0\gmc-finalv0.vcxproj
C:\Users\bluet87\Downloads\of_v0.11.0_vs2017_release\apps\myApps\gmc-finalv0\bin\gmc-finalv0_debug.lib
C:\Users\bluet87\Downloads\of_v0.11.0_vs2017_release\apps\myApps\gmc-finalv0\bin\gmc-finalv0_debug.exp
^C:\Users\bluet87\Downloads\of_v0.11.0_vs2017_release\apps\myApps\gmc-finalv0\gmc-finalv0.vcxproj
C:\Users\bluet87\Downloads\of_v0.11.0_vs2017_release\apps\myApps\gmc-finalv0\bin\gmc-finalv0_debug.lib
C:\Users\bluet87\Downloads\of_v0.11.0_vs2017_release\apps\myApps\gmc-finalv0\bin\gmc-finalv0_debug.exp
^C:\Users\bluet87\Downloads\of_v0.11.0_vs2017_release\apps\myApps\gmc-finalv0\gmc-finalv0.vcxproj
C:\Users\bluet87\Downloads\of_v0.11.0_vs2017_release\apps\myApps\gmc-finalv0\bin\gmc-finalv0_debug.lib
C:\Users\bluet87\Downloads\of_v0.11.0_vs2017_release\apps\myApps\gmc-finalv0\bin\gmc-finalv0_debug.exp
^C:\Users\bluet87\Downloads\of_v0.11.0_vs2017_release\apps\myApps\gmc-finalv0\gmc-finalv0.vcxproj
C:\Users\bluet87\Downloads\of_v0.11.0_vs2017_release\apps\myApps\gmc-finalv0\bin\gmc-finalv0_debug.lib
C:\Users\bluet87\Downloads\of_v0.11.0_vs2017_release\apps\myApps\gmc-finalv0\bin\gmc-finalv0_debug.exp
^C:\Users\bluet87\Downloads\of_v0.11.0_vs2017_release\apps\myApps\gmc-finalv0\gmc-finalv0.vcxproj
C:\Users\bluet87\Downloads\of_v0.11.0_vs2017_release\apps\myApps\gmc-finalv0\bin\gmc-finalv0_debug.lib
C:\Users\bluet87\Downloads\of_v0.11.0_vs2017_release\apps\myApps\gmc-finalv0\bin\gmc-finalv0_debug.exp
^C:\Users\bluet87\Downloads\of_v0.11.0_vs2017_release\apps\myApps\gmc-finalv0\gmc-finalv0.vcxproj
C:\Users\bluet87\Downloads\of_v0.11.0_vs2017_release\apps\myApps\gmc-finalv0\bin\gmc-finalv0_debug.lib
C:\Users\bluet87\Downloads\of_v0.11.0_vs2017_release\apps\myApps\gmc-finalv0\bin\gmc-finalv0_debug.exp
^C:\Users\bluet87\Downloads\of_v0.11.0_vs2017_release\apps\myApps\gmc-finalv0\gmc-finalv0.vcxproj
C:\Users\bluet87\Downloads\of_v0.11.0_vs2017_release\apps\myApps\gmc-finalv0\bin\gmc-finalv0_debug.lib
C:\Users\bluet87\Downloads\of_v0.11.0_vs2017_release\apps\myApps\gmc-finalv0\bin\gmc-finalv0_debug.exp
^C:\Users\bluet87\Downloads\of_v0.11.0_vs2017_release\apps\myApps\gmc-finalv0\gmc-finalv0.vcxproj
C:\Users\bluet87\Downloads\of_v0.11.0_vs2017_release\apps\myApps\gmc-finalv0\bin\gmc-finalv0_debug.lib
C:\Users\bluet87\Downloads\of_v0.11.0_vs2017_release\apps\myApps\gmc-finalv0\bin\gmc-finalv0_debug.exp
^C:\Users\bluet87\Downloads\of_v0.11.0_vs2017_release\apps\myApps\gmc-finalv0\gmc-finalv0.vcxproj
C:\Users\bluet87\Downloads\of_v0.11.0_vs2017_release\apps\myApps\gmc-finalv0\bin\gmc-finalv0_debug.lib
C:\Users\bluet87\Downloads\of_v0.11.0_vs2017_release\apps\myApps\gmc-finalv0\bin\gmc-finalv0_debug.exp
^C:\Users\bluet87\Downloads\of_v0.11.0_vs2017_release\apps\myApps\gmc-finalv0\gmc-finalv0.vcxproj
C:\Users\bluet87\Downloads\of_v0.11.0_vs2017_release\apps\myApps\gmc-finalv0\bin\gmc-finalv0_debug.lib
C:\Users\bluet87\Downloads\of_v0.11.0_vs2017_release\apps\myApps\gmc-finalv0\bin\gmc-finalv0_debug.exp
^C:\Users\bluet87\Downloads\of_v0.11.0_vs2017_release\apps\myApps\gmc-finalv0\gmc-finalv0.vcxproj
C:\Users\bluet87\Downloads\of_v0.11.0_vs2017_release\apps\myApps\gmc-finalv0\bin\gmc-finalv0_debug.lib
C:\Users\bluet87\Downloads\of_v0.11.0_vs2017_release\apps\myApps\gmc-finalv0\bin\gmc-finalv0_debug.exp
^C:\Users\bluet87\Downloads\of_v0.11.0_vs2017_release\apps\myApps\gmc-finalv0\gmc-finalv0.vcxproj
C:\Users\bluet87\Downloads\of_v0.11.0_vs2017_release\apps\myApps\gmc-finalv0\bin\gmc-finalv0_debug.lib
C:\Users\bluet87\Downloads\of_v0.11.0_vs2017_release\apps\myApps\gmc-finalv0\bin\gmc-finalv0_debug.exp
^C:\Users\bluet87\Downloads\of_v0.11.0_vs2017_release\apps\myApps\gmc-finalv0\gmc-finalv0.vcxproj
C:\Users\bluet87\Downloads\of_v0.11.0_vs2017_release\apps\myApps\gmc-finalv0\bin\gmc-finalv0_debug.lib
C:\Users\bluet87\Downloads\of_v0.11.0_vs2017_release\apps\myApps\gmc-finalv0\bin\gmc-finalv0_debug.exp
^C:\Users\bluet87\Downloads\of_v0.11.0_vs2017_release\apps\myApps\gmc-finalv0\gmc-finalv0.vcxproj
C:\Users\bluet87\Downloads\of_v0.11.0_vs2017_release\apps\myApps\gmc-finalv0\bin\gmc-finalv0_debug.lib
C:\Users\bluet87\Downloads\of_v0.11.0_vs2017_release\apps\myApps\gmc-finalv0\bin\gmc-finalv0_debug.exp
^C:\Users\bluet87\Downloads\of_v0.11.0_vs2017_release\apps\myApps\gmc-finalv0\gmc-finalv0.vcxproj
C:\Users\bluet87\Downloads\of_v0.11.0_vs2017_release\apps\myApps\gmc-finalv0\bin\gmc-finalv0_debug.lib
C:\Users\bluet87\Downloads\of_v0.11.0_vs2017_release\apps\myApps\gmc-finalv0\bin\gmc-finalv0_debug.exp
^C:\Users\bluet87\Downloads\of_v0.11.0_vs2017_release\apps\myApps\gmc-finalv0\gmc-finalv0.vcxproj
C:\Users\bluet87\Downloads\of_v0.11.0_vs2017_release\apps\myApps\gmc-finalv0\bin\gmc-finalv0_debug.lib
C:\Users\bluet87\Downloads\of_v0.11.0_vs2017_release\apps\myApps\gmc-finalv0\bin\gmc-finalv0_debug.exp
^C:\Users\bluet87\Downloads\of_v0.11.0_vs2017_release\apps\myApps\gmc-finalv0\gmc-finalv0.vcxproj
C:\Users\bluet87\Downloads\of_v0.11.0_vs2017_release\apps\myApps\gmc-finalv0\bin\gmc-finalv0_debug.lib
C:\Users\bluet87\Downloads\of_v0.11.0_vs2017_release\apps\myApps\gmc-finalv0\bin\gmc-finalv0_debug.exp
^C:\Users\bluet87\Downloads\of_v0.11.0_vs2017_release\apps\myApps\gmc-finalv0\gmc-finalv0.vcxproj
C:\Users\bluet87\Downloads\of_v0.11.0_vs2017_release\apps\myApps\gmc-finalv0\bin\gmc-finalv0_debug.lib
C:\Users\bluet87\Downloads\of_v0.11.0_vs2017_release\apps\myApps\gmc-finalv0\bin\gmc-finalv0_debug.exp
^C:\Users\bluet87\Downloads\of_v0.11.0_vs2017_release\apps\myApps\gmc-finalv0\gmc-finalv0.vcxproj
C:\Users\bluet87\Downloads\of_v0.11.0_vs2017_release\apps\myApps\gmc-finalv0\bin\gmc-finalv0_debug.lib
C:\Users\bluet87\Downloads\of_v0.11.0_vs2017_release\apps\myApps\gmc-finalv0\bin\gmc-finalv0_debug.exp
^C:\Users\bluet87\Downloads\of_v0.11.0_vs2017_release\apps\myApps\gmc-finalv0\gmc-finalv0.vcxproj
C:\Users\bluet87\Downloads\of_v0.11.0_vs2017_release\apps\myApps\gmc-finalv0\bin\gmc-finalv0_debug.lib
C:\Users\bluet87\Downloads\of_v0.11.0_vs2017_release\apps\myApps\gmc-finalv0\bin\gmc-finalv0_debug.exp
^C:\Users\bluet87\Downloads\of_v0.11.0_vs2017_release\apps\myApps\gmc-finalv0\gmc-finalv0.vcxproj
C:\Users\bluet87\Downloads\of_v0.11.0_vs2017_release\apps\myApps\gmc-finalv0\bin\gmc-finalv0_debug.lib
C:\Users\bluet87\Downloads\of_v0.11.0_vs2017_release\apps\myApps\gmc-finalv0\bin\gmc-finalv0_debug.exp
^C:\Users\bluet87\Downloads\of_v0.11.0_vs2017_release\apps\myApps\gmc-finalv0\gmc-finalv0.vcxproj
C:\Users\bluet87\Downloads\of_v0.11.0_vs2017_release\apps\myApps\gmc-finalv0\bin\gmc-finalv0_debug.lib
C:\Users\bluet87\Downloads\of_v0.11.0_vs2017_release\apps\myApps\gmc-finalv0\bin\gmc-finalv0_debug.exp
^C:\Users\bluet87\Downloads\of_v0.11.0_vs2017_release\apps\myApps\gmc-finalv0\gmc-finalv0.vcxproj
C:\Users\bluet87\Downloads\of_v0.11.0_vs2017_release\apps\myApps\gmc-finalv0\bin\gmc-finalv0_debug.lib
C:\Users\bluet87\Downloads\of_v0.11.0_vs2017_release\apps\myApps\gmc-finalv0\bin\gmc-finalv0_debug.exp
^C:\Users\bluet87\Downloads\of_v0.11.0_vs2017_release\apps\myApps\gmc-finalv0\gmc-finalv0.vcxproj
C:\Users\bluet87\Downloads\of_v0.11.0_vs2017_release\apps\myApps\gmc-finalv0\bin\gmc-finalv0_debug.lib
C:\Users\bluet87\Downloads\of_v0.11.0_vs2017_release\apps\myApps\gmc-finalv0\bin\gmc-finalv0_debug.exp
^C:\Users\bluet87\Downloads\of_v0.11.0_vs2017_release\apps\myApps\gmc-finalv0\gmc-finalv0.vcxproj
C:\Users\bluet87\Downloads\of_v0.11.0_vs2017_release\apps\myApps\gmc-finalv0\bin\gmc-finalv0_debug.lib
C:\Users\bluet87\Downloads\of_v0.11.0_vs2017_release\apps\myApps\gmc-finalv0\bin\gmc-finalv0_debug.exp
^C:\Users\bluet87\Downloads\of_v0.11.0_vs2017_release\apps\myApps\gmc-finalv0\gmc-finalv0.vcxproj
C:\Users\bluet87\Downloads\of_v0.11.0_vs2017_release\apps\myApps\gmc-finalv0\bin\gmc-finalv0_debug.lib
C:\Users\bluet87\Downloads\of_v0.11.0_vs2017_release\apps\myApps\gmc-finalv0\bin\gmc-finalv0_debug.exp
^C:\Users\bluet87\Downloads\of_v0.11.0_vs2017_release\apps\myApps\gmc-finalv0\gmc-finalv0.vcxproj
C:\Users\bluet87\Downloads\of_v0.11.0_vs2017_release\apps\myApps\gmc-finalv0\bin\gmc-finalv0_debug.lib
C:\Users\bluet87\Downloads\of_v0.11.0_vs2017_release\apps\myApps\gmc-finalv0\bin\gmc-finalv0_debug.exp
^C:\Users\bluet87\Downloads\of_v0.11.0_vs2017_release\apps\myApps\gmc-finalv0\gmc-finalv0.vcxproj
C:\Users\bluet87\Downloads\of_v0.11.0_vs2017_release\apps\myApps\gmc-finalv0\bin\gmc-finalv0_debug.lib
C:\Users\bluet87\Downloads\of_v0.11.0_vs2017_release\apps\myApps\gmc-finalv0\bin\gmc-finalv0_debug.exp
^C:\Users\bluet87\Downloads\of_v0.11.0_vs2017_release\apps\myApps\gmc-finalv0\gmc-finalv0.vcxproj
C:\Users\bluet87\Downloads\of_v0.11.0_vs2017_release\apps\myApps\gmc-finalv0\bin\gmc-finalv0_debug.lib
C:\Users\bluet87\Downloads\of_v0.11.0_vs2017_release\apps\myApps\gmc-finalv0\bin\gmc-finalv0_debug.exp
^C:\Users\bluet87\Downloads\of_v0.11.0_vs2017_release\apps\myApps\gmc-finalv0\gmc-finalv0.vcxproj
C:\Users\bluet87\Downloads\of_v0.11.0_vs2017_release\apps\myApps\gmc-finalv0\bin\gmc-finalv0_debug.lib
C:\Users\bluet87\Downloads\of_v0.11.0_vs2017_release\apps\myApps\gmc-finalv0\bin\gmc-finalv0_debug.exp
^C:\Users\bluet87\Downloads\of_v0.11.0_vs2017_release\apps\myApps\gmc-finalv0\gmc-finalv0.vcxproj
C:\Users\bluet87\Downloads\of_v0.11.0_vs2017_release\apps\myApps\gmc-finalv0\bin\gmc-finalv0_debug.lib
C:\Users\bluet87\Downloads\of_v0.11.0_vs2017_release\apps\myApps\gmc-finalv0\bin\gmc-finalv0_debug.exp
^C:\Users\bluet87\Downloads\of_v0.11.0_vs2017_release\apps\myApps\gmc-finalv0\gmc-finalv0.vcxproj
C:\Users\bluet87\Downloads\of_v0.11.0_vs2017_release\apps\myApps\gmc-finalv0\bin\gmc-finalv0_debug.lib
C:\Users\bluet87\Downloads\of_v0.11.0_vs2017_release\apps\myApps\gmc-finalv0\bin\gmc-finalv0_debug.exp
^C:\Users\bluet87\Downloads\of_v0.11.0_vs2017_release\apps\myApps\gmc-finalv0\gmc-finalv0.vcxproj
C:\Users\bluet87\Downloads\of_v0.11.0_vs2017_release\apps\myApps\gmc-finalv0\bin\gmc-finalv0_debug.lib
C:\Users\bluet87\Downloads\of_v0.11.0_vs2017_release\apps\myApps\gmc-finalv0\bin\gmc-finalv0_debug.exp
^C:\Users\bluet87\Downloads\of_v0.11.0_vs2017_release\apps\myApps\gmc-finalv0\gmc-finalv0.vcxproj
C:\Users\bluet87\Downloads\of_v0.11.0_vs2017_release\apps\myApps\gmc-finalv0\bin\gmc-finalv0_debug.lib
C:\Users\bluet87\Downloads\of_v0.11.0_vs2017_release\apps\myApps\gmc-finalv0\bin\gmc-finalv0_debug.exp
^C:\Users\bluet87\Downloads\of_v0.11.0_vs2017_release\apps\myApps\gmc-finalv0\gmc-finalv0.vcxproj
C:\Users\bluet87\Downloads\of_v0.11.0_vs2017_release\apps\myApps\gmc-finalv0\bin\gmc-finalv0_debug.lib
C:\Users\bluet87\Downloads\of_v0.11.0_vs2017_release\apps\myApps\gmc-finalv0\bin\gmc-finalv0_debug.exp
^C:\Users\bluet87\Downloads\of_v0.11.0_vs2017_release\apps\myApps\gmc-finalv0\gmc-finalv0.vcxproj
C:\Users\bluet87\Downloads\of_v0.11.0_vs2017_release\apps\myApps\gmc-finalv0\bin\gmc-finalv0_debug.lib
C:\Users\bluet87\Downloads\of_v0.11.0_vs2017_release\apps\myApps\gmc-finalv0\bin\gmc-finalv0_debug.exp
^C:\Users\bluet87\Downloads\of_v0.11.0_vs2017_release\apps\myApps\gmc-finalv0\gmc-finalv0.vcxproj
C:\Users\bluet87\Downloads\of_v0.11.0_vs2017_release\apps\myApps\gmc-finalv0\bin\gmc-finalv0_debug.lib
C:\Users\bluet87\Downloads\of_v0.11.0_vs2017_release\apps\myApps\gmc-finalv0\bin\gmc-finalv0_debug.exp
^C:\Users\bluet87\Downloads\of_v0.11.0_vs2017_release\apps\myApps\gmc-finalv0\gmc-finalv0.vcxproj
C:\Users\bluet87\Downloads\of_v0.11.0_vs2017_release\apps\myApps\gmc-finalv0\bin\gmc-finalv0_debug.lib
C:\Users\bluet87\Downloads\of_v0.11.0_vs2017_release\apps\myApps\gmc-finalv0\bin\gmc-finalv0_debug.exp
^C:\Users\bluet87\Downloads\of_v0.11.0_vs2017_release\apps\myApps\gmc-finalv0\gmc-finalv0.vcxproj
C:\Users\bluet87\Downloads\of_v0.11.0_vs2017_release\apps\myApps\gmc-finalv0\bin\gmc-finalv0_debug.lib
C:\Users\bluet87\Downloads\of_v0.11.0_vs2017_release\apps\myApps\gmc-finalv0\bin\gmc-finalv0_debug.exp
^C:\Users\bluet87\Downloads\of_v0.11.0_vs2017_release\apps\myApps\gmc-finalv0\gmc-finalv0.vcxproj
C:\Users\bluet87\Downloads\of_v0.11.0_vs2017_release\apps\myApps\gmc-finalv0\bin\gmc-finalv0_debug.lib
C:\Users\bluet87\Downloads\of_v0.11.0_vs2017_release\apps\myApps\gmc-finalv0\bin\gmc-finalv0_debug.exp
^C:\Users\bluet87\Downloads\of_v0.11.0_vs2017_release\apps\myApps\gmc-finalv0\gmc-finalv0.vcxproj
C:\Users\bluet87\Downloads\of_v0.11.0_vs2017_release\apps\myApps\gmc-finalv0\bin\gmc-finalv0_debug.lib
C:\Users\bluet87\Downloads\of_v0.11.0_vs2017_release\apps\myApps\gmc-finalv0\bin\gmc-finalv0_debug.exp
^C:\Users\bluet87\Downloads\of_v0.11.0_vs2017_release\apps\myApps\gmc-finalv0\gmc-finalv0.vcxproj
C:\Users\bluet87\Downloads\of_v0.11.0_vs2017_release\apps\myApps\gmc-finalv0\bin\gmc-finalv0_debug.lib
C:\Users\bluet87\Downloads\of_v0.11.0_vs2017_release\apps\myApps\gmc-finalv0\bin\gmc-finalv0_debug.exp
^C:\Users\bluet87\Downloads\of_v0.11.0_vs2017_release\apps\myApps\gmc-finalv0\gmc-finalv0.vcxproj
C:\Users\bluet87\Downloads\of_v0.11.0_vs2017_release\apps\myApps\gmc-finalv0\bin\gmc-finalv0_debug.lib
C:\Users\bluet87\Downloads\of_v0.11.0_vs2017_release\apps\myApps\gmc-finalv0\bin\gmc-finalv0_debug.exp
^C:\Users\bluet87\Downloads\of_v0.11.0_vs2017_release\apps\myApps\gmc-finalv0\gmc-finalv0.vcxproj
C:\Users\bluet87\Downloads\of_v0.11.0_vs2017_release\apps\myApps\gmc-finalv0\bin\gmc-finalv0_debug.lib
C:\Users\bluet87\Downloads\of_v0.11.0_vs2017_release\apps\myApps\gmc-finalv0\bin\gmc-finalv0_debug.exp
^C:\Users\bluet87\Downloads\of_v0.11.0_vs2017_release\apps\myApps\gmc-finalv0\gmc-finalv0.vcxproj
C:\Users\bluet87\Downloads\of_v0.11.0_vs2017_release\apps\myApps\gmc-finalv0\bin\gmc-finalv0_debug.lib
C:\Users\bluet87\Downloads\of_v0.11.0_vs2017_release\apps\myApps\gmc-finalv0\bin\gmc-finalv0_debug.exp
^C:\Users\bluet87\Downloads\of_v0.11.0_vs2017_release\apps\myApps\gmc-finalv0\gmc-finalv0.vcxproj
C:\Users\bluet87\Downloads\of_v0.11.0_vs2017_release\apps\myApps\gmc-finalv0\bin\gmc-finalv0_debug.lib
C:\Users\bluet87\Downloads\of_v0.11.0_vs2017_release\apps\myApps\gmc-finalv0\bin\gmc-finalv0_debug.exp
^C:\Users\bluet87\Downloads\of_v0.11.0_vs2017_release\apps\myApps\gmc-finalv0\gmc-finalv0.vcxproj
C:\Users\bluet87\Downloads\of_v0.11.0_vs2017_release\apps\myApps\gmc-finalv0\bin\gmc-finalv0_debug.lib
C:\Users\bluet87\Downloads\of_v0.11.0_vs2017_release\apps\myApps\gmc-finalv0\bin\gmc-finalv0_debug.exp
^C:\Users\bluet87\Downloads\of_v0.11.0_vs2017_release\apps\myApps\gmc-finalv0\gmc-finalv0.vcxproj
C:\Users\bluet87\Downloads\of_v0.11.0_vs2017_release\apps\myApps\gmc-finalv0\bin\gmc-finalv0_debug.lib
C:\Users\bluet87\Downloads\of_v0.11.0_vs2017_release\apps\myApps\gmc-finalv0\bin\gmc-finalv0_debug.exp
^C:\Users\bluet87\Downloads\of_v0.11.0_vs2017_release\apps\myApps\gmc-finalv0\gmc-finalv0.vcxproj
C:\Users\bluet87\Downloads\of_v0.11.0_vs2017_release\apps\myApps\gmc-finalv0\bin\gmc-finalv0_debug.lib
C:\Users\bluet87\Downloads\of_v0.11.0_vs2017_release\apps\myApps\gmc-finalv0\bin\gmc-finalv0_debug.exp
^C:\Users\bluet87\Downloads\of_v0.11.0_vs2017_release\apps\myApps\gmc-finalv0\gmc-finalv0.vcxproj
C:\Users\bluet87\Downloads\of_v0.11.0_vs2017_release\apps\myApps\gmc-finalv0\bin\gmc-finalv0_debug.lib
C:\Users\bluet87\Downloads\of_v0.11.0_vs2017_release\apps\myApps\gmc-finalv0\bin\gmc-finalv0_debug.exp
