^C:\USERS\BLUET87\DOWNLOADS\OF_V0.11.0_VS2017_RELEASE\APPS\MYAPPS\GMC-FINALV0\OBJ\WIN32\DEBUG\ICON.RES|C:\USERS\BLUET87\DOWNLOADS\OF_V0.11.0_VS2017_RELEASE\APPS\MYAPPS\GMC-FINALV0\OBJ\WIN32\DEBUG\MAIN.OBJ|C:\USERS\BLUET87\DOWNLOADS\OF_V0.11.0_VS2017_RELEASE\APPS\MYAPPS\GMC-FINALV0\OBJ\WIN32\DEBUG\OFAPP.OBJ|C:\USERS\BLUET87\DOWNLOADS\OF_V0.11.0_VS2017_RELEASE\LIBS\OPENFRAMEWORKSCOMPILED\LIB\VS\WIN32\OPENFRAMEWORKSLIB_DEBUG.LIB
C:\USERS\BLUET87\DOWNLOADS\OF_V0.11.0_VS2017_RELEASE\LIBS\CAIRO\LIB\VS\WIN32\CAIRO-STATIC.LIB
C:\USERS\BLUET87\DOWNLOADS\OF_V0.11.0_VS2017_RELEASE\LIBS\CAIRO\LIB\VS\WIN32\PIXMAN-1.LIB
C:\USERS\BLUET87\DOWNLOADS\OF_V0.11.0_VS2017_RELEASE\LIBS\CAIRO\LIB\VS\WIN32\LIBPNG.LIB
C:\USERS\BLUET87\DOWNLOADS\OF_V0.11.0_VS2017_RELEASE\LIBS\CAIRO\LIB\VS\WIN32\ZLIB.LIB
C:\PROGRAM FILES (X86)\WINDOWS KITS\10\LIB\10.0.17763.0\UM\X86\MSIMG32.LIB
C:\PROGRAM FILES (X86)\WINDOWS KITS\10\LIB\10.0.17763.0\UM\X86\OPENGL32.LIB
C:\PROGRAM FILES (X86)\WINDOWS KITS\10\LIB\10.0.17763.0\UM\X86\GLU32.LIB
C:\PROGRAM FILES (X86)\WINDOWS KITS\10\LIB\10.0.17763.0\UM\X86\KERNEL32.LIB
C:\PROGRAM FILES (X86)\WINDOWS KITS\10\LIB\10.0.17763.0\UM\X86\SETUPAPI.LIB
C:\PROGRAM FILES (X86)\WINDOWS KITS\10\LIB\10.0.17763.0\UM\X86\VFW32.LIB
C:\PROGRAM FILES (X86)\WINDOWS KITS\10\LIB\10.0.17763.0\UM\X86\COMCTL32.LIB
C:\USERS\BLUET87\DOWNLOADS\OF_V0.11.0_VS2017_RELEASE\LIBS\RTAUDIO\LIB\VS\WIN32\RTAUDIOD.LIB
C:\USERS\BLUET87\DOWNLOADS\OF_V0.11.0_VS2017_RELEASE\LIBS\VIDEOINPUT\LIB\VS\WIN32\VIDEOINPUTD.LIB
C:\USERS\BLUET87\DOWNLOADS\OF_V0.11.0_VS2017_RELEASE\LIBS\FREETYPE\LIB\VS\WIN32\LIBFREETYPE.LIB
C:\USERS\BLUET87\DOWNLOADS\OF_V0.11.0_VS2017_RELEASE\LIBS\FREEIMAGE\LIB\VS\WIN32\FREEIMAGE.LIB
C:\PROGRAM FILES (X86)\WINDOWS KITS\10\LIB\10.0.17763.0\UM\X86\DSOUND.LIB
C:\PROGRAM FILES (X86)\WINDOWS KITS\10\LIB\10.0.17763.0\UM\X86\USER32.LIB
C:\PROGRAM FILES (X86)\WINDOWS KITS\10\LIB\10.0.17763.0\UM\X86\GDI32.LIB
C:\PROGRAM FILES (X86)\WINDOWS KITS\10\LIB\10.0.17763.0\UM\X86\WINSPOOL.LIB
C:\PROGRAM FILES (X86)\WINDOWS KITS\10\LIB\10.0.17763.0\UM\X86\COMDLG32.LIB
C:\PROGRAM FILES (X86)\WINDOWS KITS\10\LIB\10.0.17763.0\UM\X86\ADVAPI32.LIB
C:\PROGRAM FILES (X86)\WINDOWS KITS\10\LIB\10.0.17763.0\UM\X86\SHELL32.LIB
C:\PROGRAM FILES (X86)\WINDOWS KITS\10\LIB\10.0.17763.0\UM\X86\OLE32.LIB
C:\PROGRAM FILES (X86)\WINDOWS KITS\10\LIB\10.0.17763.0\UM\X86\OLEAUT32.LIB
C:\PROGRAM FILES (X86)\WINDOWS KITS\10\LIB\10.0.17763.0\UM\X86\UUID.LIB
C:\USERS\BLUET87\DOWNLOADS\OF_V0.11.0_VS2017_RELEASE\LIBS\GLEW\LIB\VS\WIN32\GLEW32S.LIB
C:\USERS\BLUET87\DOWNLOADS\OF_V0.11.0_VS2017_RELEASE\LIBS\FMODEX\LIB\VS\WIN32\FMODEX_VC.LIB
C:\USERS\BLUET87\DOWNLOADS\OF_V0.11.0_VS2017_RELEASE\LIBS\OPENSSL\LIB\VS\WIN32\LIBSSL.LIB
C:\USERS\BLUET87\DOWNLOADS\OF_V0.11.0_VS2017_RELEASE\LIBS\OPENSSL\LIB\VS\WIN32\LIBCRYPTO.LIB
C:\PROGRAM FILES (X86)\WINDOWS KITS\10\LIB\10.0.17763.0\UM\X86\CRYPT32.LIB
C:\USERS\BLUET87\DOWNLOADS\OF_V0.11.0_VS2017_RELEASE\LIBS\CURL\LIB\VS\WIN32\LIBCURL.LIB
C:\USERS\BLUET87\DOWNLOADS\OF_V0.11.0_VS2017_RELEASE\LIBS\URIPARSER\LIB\VS\WIN32\URIPARSER.LIB
C:\USERS\BLUET87\DOWNLOADS\OF_V0.11.0_VS2017_RELEASE\LIBS\PUGIXML\LIB\VS\WIN32\PUGIXMLD.LIB
C:\PROGRAM FILES (X86)\WINDOWS KITS\10\LIB\10.0.17763.0\UM\X86\WS2_32.LIB
C:\USERS\BLUET87\DOWNLOADS\OF_V0.11.0_VS2017_RELEASE\LIBS\TESS2\LIB\VS\WIN32\TESS2.LIB
C:\USERS\BLUET87\DOWNLOADS\OF_V0.11.0_VS2017_RELEASE\LIBS\GLFW\LIB\VS\WIN32\GLFW3.LIB
C:\PROGRAM FILES (X86)\WINDOWS KITS\10\LIB\10.0.17763.0\UM\X86\WINMM.LIB
C:\PROGRAM FILES (X86)\WINDOWS KITS\10\LIB\10.0.17763.0\UM\X86\ODBC32.LIB
C:\PROGRAM FILES (X86)\WINDOWS KITS\10\LIB\10.0.17763.0\UM\X86\ODBCCP32.LIB
C:\PROGRAM FILES (X86)\WINDOWS KITS\10\LIB\10.0.17763.0\UM\X86\WLDAP32.LIB
C:\USERS\BLUET87\DOWNLOADS\OF_V0.11.0_VS2017_RELEASE\APPS\MYAPPS\GMC-FINALV0\OBJ\WIN32\DEBUG\ICON.RES
C:\USERS\BLUET87\DOWNLOADS\OF_V0.11.0_VS2017_RELEASE\APPS\MYAPPS\GMC-FINALV0\OBJ\WIN32\DEBUG\MAIN.OBJ
C:\USERS\BLUET87\DOWNLOADS\OF_V0.11.0_VS2017_RELEASE\APPS\MYAPPS\GMC-FINALV0\OBJ\WIN32\DEBUG\OFAPP.OBJ
C:\USERS\BLUET87\DOWNLOADS\OF_V0.11.0_VS2017_RELEASE\LIBS\OPENFRAMEWORKSCOMPILED\LIB\VS\WIN32\OPENFRAMEWORKSLIB_DEBUG.LIB
C:\WINDOWS\SYSTEM32\TZRES.DLL
C:\WINDOWS\GLOBALIZATION\SORTING\SORTDEFAULT.NLS
C:\PROGRAM FILES (X86)\MICROSOFT VISUAL STUDIO\2017\COMMUNITY\VC\TOOLS\MSVC\14.16.27023\LIB\X86\MSVCPRTD.LIB
C:\USERS\BLUET87\DOWNLOADS\OF_V0.11.0_VS2017_RELEASE\LIBS\BOOST\LIB\VS\WIN32\LIBBOOST_FILESYSTEM-VC141-MT-GD-1_65.LIB
C:\USERS\BLUET87\DOWNLOADS\OF_V0.11.0_VS2017_RELEASE\LIBS\BOOST\LIB\VS\WIN32\LIBBOOST_SYSTEM-VC141-MT-GD-1_65.LIB
C:\PROGRAM FILES (X86)\WINDOWS KITS\10\LIB\10.0.17763.0\UM\X86\STRMIIDS.LIB
C:\PROGRAM FILES (X86)\MICROSOFT VISUAL STUDIO\2017\COMMUNITY\VC\TOOLS\MSVC\14.16.27023\LIB\X86\MSVCRTD.LIB
C:\PROGRAM FILES (X86)\MICROSOFT VISUAL STUDIO\2017\COMMUNITY\VC\TOOLS\MSVC\14.16.27023\LIB\X86\OLDNAMES.LIB
C:\PROGRAM FILES (X86)\MICROSOFT VISUAL STUDIO\2017\COMMUNITY\VC\TOOLS\MSVC\14.16.27023\LIB\X86\VCRUNTIMED.LIB
C:\PROGRAM FILES (X86)\WINDOWS KITS\10\LIB\10.0.17763.0\UCRT\X86\UCRTD.LIB
