^C:\USERS\BLUET87\DOWNLOADS\OF_V0.11.0_VS2017_RELEASE\APPS\MYAPPS\GMC-FINALV0\OBJ\WIN32\DEBUG\ICON.RES|C:\USERS\BLUET87\DOWNLOADS\OF_V0.11.0_VS2017_RELEASE\APPS\MYAPPS\GMC-FINALV0\OBJ\WIN32\DEBUG\MAIN.OBJ|C:\USERS\BLUET87\DOWNLOADS\OF_V0.11.0_VS2017_RELEASE\APPS\MYAPPS\GMC-FINALV0\OBJ\WIN32\DEBUG\OFAPP.OBJ|C:\USERS\BLUET87\DOWNLOADS\OF_V0.11.0_VS2017_RELEASE\LIBS\OPENFRAMEWORKSCOMPILED\LIB\VS\WIN32\OPENFRAMEWORKSLIB_DEBUG.LIB
C:\USERS\BLUET87\DOWNLOADS\OF_V0.11.0_VS2017_RELEASE\APPS\MYAPPS\GMC-FINALV0\BIN\GMC-FINALV0_DEBUG.EXE
C:\USERS\BLUET87\DOWNLOADS\OF_V0.11.0_VS2017_RELEASE\APPS\MYAPPS\GMC-FINALV0\BIN\GMC-FINALV0_DEBUG.ILK
C:\USERS\BLUET87\DOWNLOADS\OF_V0.11.0_VS2017_RELEASE\APPS\MYAPPS\GMC-FINALV0\BIN\GMC-FINALV0_DEBUG.PDB
